Search Term,URL,Site Title,HTML Snippet
beat  synonyms,https://www.thesaurus.com/browse/beat,"Beat Synonyms, Beat Antonyms | Thesaurus.com","beat &middot; adj. very tired &middot; nounthrobbing &middot; nounblow, stroke &middot; nounarea of <br>
responsibility &middot; verbinjure by striking &middot; verbdefeat, surpass &middot; verbforge &middot; verbthrob<br>
&nbsp;..."
beat  synonyms,https://www.merriam-webster.com/thesaurus/beat,"Beat Synonyms, Beat Antonyms | Merriam-Webster Thesaurus","Synonyms &amp; Antonyms of beat &middot; 1 a hard strike with a part of the body or an <br>
instrument delivered one hard beat on the drums &middot; 2 a rhythmic expanding and&nbsp;..."
beat  synonyms,https://thesaurus.yourdictionary.com/beat,Beat synonyms | Best 303 synonyms for beat,"The best 303 synonyms for beat, including: weary, punch, hit, rhythm, pulsation, <br>
lash, slap, punish, fluctuate, fatigued, strike and more... Find another word for&nbsp;..."
beat  synonyms,https://www.lexico.com/synonym/beat,Beat | Synonyms of Beat by Lexico,"verb &middot; 1&#39;before running off, the men beat me with pickaxe handles&#39; &middot; 2&#39;he could <br>
hear a drum being beaten&#39; &middot; 3&#39;the waves beat all along the shore&#39; &middot; 4&#39;the metal is&nbsp;..."
beat  synonyms,https://www.wordhippo.com/what-is/another-word-for/beat.html,What is another word for beat? | Beat Synonyms - WordHippo ...,"Find 19102 synonyms for beat and other similar words that you can use instead <br>
based on 79 separate contexts from our thesaurus."
beat  synonyms,https://www.synonym.com/synonyms/beat,Synonyms and Antonyms for beat | Synonym.com,"Synonym.com is the web&#39;s best resource for English synonyms, antonyms, and <br>
definitions."
beat  synonyms,https://www.collinsdictionary.com/dictionary/english-thesaurus/beat,Beat Synonyms | Collins English Thesaurus,"Another word for beat: batter, break, hit, strike, knock | Collins English Thesaurus."
beat  synonyms,https://www.powerthesaurus.org/beat,7 275 Beat Synonyms and 375 Beat Antonyms | Beat in Thesaurus,Synonyms (Other Words) for Beat &amp; Antonyms (Opposite Meaning) for Beat.
beat  synonyms,http://thesaurus.com/browse/beating+the+bush?qsrc=2446,"Beat about the bush Synonyms, Beat about the bush Antonyms","Synonyms for beat about the bush at Thesaurus.com with free online thesaurus, <br>
antonyms, and definitions. Find descriptive alternatives for beat about the bush."
beat  synonyms,https://www.macmillandictionary.com/us/dictionary/american/beat_1,BEAT (verb) definition and synonyms | Macmillan Dictionary,"Dec 16, 2014 ... Definition of BEAT (verb): defeat someone; arrive before someone; hit someone <br>
several times; hit something several times, making regular&nbsp;..."
