Search Term,URL,Site Title,HTML Snippet
bed  synonyms,https://www.thesaurus.com/browse/bed,"Bed Synonyms, Bed Antonyms | Thesaurus.com",Synonyms for &middot; bunk &middot; cot &middot; couch &middot; crib &middot; mattress &middot; bassinet &middot; berth &middot; sack.
bed  synonyms,https://www.merriam-webster.com/thesaurus/bed,"Bed Synonyms, Bed Antonyms | Merriam-Webster Thesaurus","Synonyms &amp; Antonyms of bed. (Entry 1 of 2). 1 a place set aside for sleeping. the<br>
&nbsp;..."
bed  synonyms,https://thesaurus.yourdictionary.com/bed,Bed synonyms | Best 137 synonyms for bed,"The best 137 synonyms for bed, including: hay, couch, pallet, cot, bottom, garden, <br>
area, row, island bed, fix, ground and more... Find another word for bed at&nbsp;..."
bed  synonyms,https://www.merriam-webster.com/thesaurus/beds,"Beds Synonyms, Beds Antonyms | Merriam-Webster Thesaurus","Synonyms &amp; Antonyms of beds. (Entry 1 of 2). 1 a place set aside for sleeping. <br>
the&nbsp;..."
bed  synonyms,https://www.wordhippo.com/what-is/another-word-for/bed.html,What is another word for bed? | Bed Synonyms - WordHippo ...,"bed &middot; Noun &middot; A piece of furniture for sleep or rest, typically a framework with a <br>
mattress &middot; An area of ground, typically in a garden, where flowers and plants are <br>
grown."
bed  synonyms,https://www.powerthesaurus.org/bed/synonyms,1 540 Bed synonyms - Other Words for Bed,"Bed synonyms. Top synonyms for bed (other words for bed) are hit the hay, put to <br>
bed and sack."
bed  synonyms,https://www.synonyms.com/synonym/bed,Bed Synonyms & Antonyms | Synonyms.com,"Find all the synonyms and alternative words for bed at Synonyms.com, the <br>
largest free online thesaurus, antonyms, definitions and translations resource on <br>
the&nbsp;..."
bed  synonyms,https://www.collinsdictionary.com/dictionary/english-thesaurus/bed,Bed Synonyms | Collins English Thesaurus,"1 (noun) in the sense of bedstead. Definition. to place firmly into position. She <br>
went in to her bedroom and lay down on the bed. Synonyms. bedstead. couch."
bed  synonyms,https://www.macmillanthesaurus.com/us/make-a-bed,make a bed synonyms with definition | Macmillan Thesaurus,"Synonyms for &#39;make a bed&#39;: clean up, clear out, clean, sort out, clean out, tidy, <br>
pick up after, brush, pick up, straighten up, brush down, change."
bed  synonyms,https://www.synonym.com/synonyms/bed,Synonyms and Antonyms for bed | Synonym.com,"Synonym.com is the web&#39;s best resource for English synonyms, antonyms, and <br>
definitions."
