Search Term,URL,Site Title,HTML Snippet
chocolate  synonyms,https://www.thesaurus.com/browse/chocolate,"Chocolate Synonyms, Chocolate Antonyms | Thesaurus.com","Synonyms for chocolate at Thesaurus.com with free online thesaurus, antonyms, <br>
and definitions. Find descriptive alternatives for chocolate."
chocolate  synonyms,https://www.powerthesaurus.org/chocolate/synonyms,413 Chocolate synonyms - Other Words for Chocolate,"Chocolate synonyms. Top synonyms for chocolate (other words for chocolate) <br>
are cocoa, fudge and candy bar."
chocolate  synonyms,https://www.thesaurus.com/browse/chocolates,"Chocolates Synonyms, Chocolates Antonyms | Thesaurus.com","Synonyms for &middot; candy &middot; confection &middot; dessert &middot; snack &middot; bonbon &middot; confectionery &middot; <br>
enjoyment &middot; joy."
chocolate  synonyms,https://www.synonyms.com/synonym/chocolate,Chocolate Synonyms & Antonyms | Synonyms.com,"Apr 2, 2020 ... Princeton&#39;s WordNet(2.33 / 3 votes)Rate these synonyms: &middot; cocoa, chocolate, hot <br>
chocolate, drinking chocolate(noun) a beverage made from&nbsp;..."
chocolate  synonyms,https://www.wordhippo.com/what-is/another-word-for/chocolate.html,What is another word for chocolate? | Chocolate Synonyms ...,"Find 118 synonyms for chocolate and other similar words that you can use <br>
instead based on 2 separate contexts from our thesaurus."
chocolate  synonyms,https://www.merriam-webster.com/thesaurus/chocolate,"Chocolate Synonyms, Chocolate Antonyms | Merriam-Webster ...","Synonyms &amp; Antonyms of chocolate &middot; argentine, &middot; gray &middot; (also grey), &middot; grayish, &middot; <br>
leaden, &middot; pewter, &middot; silver, &middot; silvery,&nbsp;..."
chocolate  synonyms,https://reversedictionary.org/wordsfor/chocolate,100+ words for 'chocolate' - Reverse Dictionary,"mousse choc kiss ganache chocolate liqueur hot chocolate fondue Boston ... de <br>
cacao theobromine chocolate rabbit cappuccino cocoa liquor dark chocolate ... <br>
That project is closer to a thesaurus in the sense that it returns synonyms for a&nbsp;..."
chocolate  synonyms,https://www.thesaurus.net/chocolate,Synonyms for CHOCOLATE - Thesaurus.net,"brown (adjective); burnt umber (noun); candy (noun); chocolate (noun); colors (<br>
noun); food (noun); sweet (noun)&nbsp;..."
chocolate  synonyms,https://thesaurus.yourdictionary.com/chocolate,Chocolate synonyms | Best 15 synonyms for chocolate,"Find another word for chocolate. In this page you can discover 15 synonyms, <br>
antonyms, idiomatic expressions, and related words for chocolate, like: brunet,&nbsp;..."
chocolate  synonyms,https://www.synonym.com/synonyms/chocolate,Synonyms and Antonyms for chocolate | Synonym.com,"Synonym.com is the web&#39;s best resource for English synonyms, antonyms, and <br>
definitions."
