Search Term,URL,Site Title,HTML Snippet
dragon  synonyms,https://www.thesaurus.com/browse/dragon,"Dragon Synonyms, Dragon Antonyms | Thesaurus.com","Synonyms for dragon. basilisk &middot; hydra &middot; tarragon &middot; wyvern. TRY dragon IN A <br>
SENTENCE&nbsp;..."
dragon  synonyms,https://www.synonyms.com/synonym/dragon,Dragon Synonyms & Antonyms | Synonyms.com,"Princeton&#39;s WordNet(1.33 / 3 votes)Rate these synonyms: &middot; dragon, firedrake(<br>
noun) a creature of Teutonic mythology; usually represented as breathing fire <br>
and&nbsp;..."
dragon  synonyms,https://thesaurus.yourdictionary.com/dragon,Dragon synonyms | Best 14 synonyms for dragon,"The best 14 synonyms for dragon, including: firedrake, draco, talos, mythical <br>
beast, basilisk, wyvern, hydra, winged serpent, tarragon, monster, flying dragon <br>
and&nbsp;..."
dragon  synonyms,https://www.powerthesaurus.org/dragon/synonyms,458 Dragon synonyms - Other Words for Dragon,"Dragon synonyms. Top synonyms for dragon (other words for dragon) are drake, <br>
wyvern and draco."
dragon  synonyms,https://www.wordhippo.com/what-is/another-word-for/dragon.html,What is another word for dragon? | Dragon Synonyms - WordHippo ...,"Find 96 synonyms for dragon and other similar words that you can use instead <br>
based on 3 separate contexts from our thesaurus."
dragon  synonyms,https://www.thesaurus.net/dragon,Synonyms for DRAGON - Thesaurus.net,"Synonyms for DRAGON: soldier, windigo, tatar, terror, box turtle, fury, calculus, <br>
bomber, constellation, cayman, gem, roc, endocarp, crone, tortoise, hawksbill&nbsp;..."
dragon  synonyms,https://www.merriam-webster.com/thesaurus/dragon,Synonyms and Antonyms for Entries with Dragon | Merriam-Webster ...,"Dragon is not entered in the thesaurus. Here are 2 entries in the thesaurus <br>
containing dragon. Find Synonyms and Antonyms for entries with dragon."
dragon  synonyms,https://www.macmillanthesaurus.com/dragon,dragon synonyms with definition | Macmillan Thesaurus,"Related terms for &#39;dragon&#39;: the Abominable Snowman, bogey, bogeyman, <br>
boogeyman, bunyip, centaur, chimaera, chimera, creature, daemon, dryad, dwarf."
dragon  synonyms,https://calidadrevistas.fecyt.es/docs/dragon-synonyms-japanese-18355c,dragon synonyms japanese,"5 synonyms for dragon: firedrake, tartar, Draco, flying dragon, flying lizard. <br>
dragon - WordReference thesaurus: synonyms, discussion and more. ドラゴン <br>
vs."
dragon  synonyms,https://thesaurus.plus/synonyms/dragon,More 100 Dragon Synonyms. Similar words for Dragon.,What is another word for Dragon? Draco.
