Search Term,URL,Site Title,HTML Snippet
ground  synonyms,https://www.thesaurus.com/browse/ground,"Ground Synonyms, Ground Antonyms | Thesaurus.com",Synonyms for &middot; dirt &middot; field &middot; landscape &middot; park &middot; soil &middot; terrain &middot; turf &middot; dust.
ground  synonyms,https://www.merriam-webster.com/thesaurus/ground,"Ground Synonyms, Ground Antonyms | Merriam-Webster Thesaurus","Synonyms &amp; Antonyms of ground &middot; 1 grounds plural the area around and <br>
belonging to a building &middot; 2 grounds plural matter that settles to the bottom of a <br>
body of&nbsp;..."
ground  synonyms,https://www.thesaurus.com/browse/grounds,"Grounds Synonyms, Grounds Antonyms | Thesaurus.com","Synonyms for grounds at Thesaurus.com with free online thesaurus, antonyms, <br>
and definitions. Find descriptive alternatives for grounds."
ground  synonyms,https://www.synonyms.com/synonym/ground,Ground Synonyms & Antonyms | Synonyms.com,"Princeton&#39;s WordNet(0.00 / 0 votes)Rate these synonyms: &middot; land, dry land, earth, <br>
ground, solid ground, terra firma(noun) the solid part of the earth&#39;s surface &middot; <br>
reason,&nbsp;..."
ground  synonyms,https://thesaurus.yourdictionary.com/ground,Ground synonyms | Best 154 synonyms for ground,"The best 154 synonyms for ground, including: spot, terrain, floor, bring down, <br>
prostrate, cause to remain on the ground, bar from flying, take wings away, <br>
prevent&nbsp;..."
ground  synonyms,https://www.lexico.com/synonym/ground,Ground | Synonyms of Ground by Lexico,"noun &middot; 1&#39;she stumbled and then collapsed on the ground&#39; SYNONYMS floor, earth<br>
, terra firma flooring informal deck &middot; 2&#39;their feet sank into the soggy ground&#39;."
ground  synonyms,https://www.powerthesaurus.org/ground/synonyms,5 643 Ground synonyms - Other Words for Ground,"Ground synonyms. Top synonyms for ground (other words for ground) are land, <br>
earth and soil."
ground  synonyms,https://www.wordhippo.com/what-is/another-word-for/ground.html,What is another word for ground? | Ground Synonyms - WordHippo ...,"Find 9018 synonyms for ground and other similar words that you can use instead <br>
based on 65 separate contexts from our thesaurus."
ground  synonyms,http://thesaurus.com/browse/finding+middle+ground?qsrc=2446&o=100074,Synonyms for find middle ground,"Synonyms for find middle ground at Thesaurus.com with free online thesaurus, <br>
antonyms, and definitions. Find descriptive alternatives for find middle ground."
ground  synonyms,https://www.macmillandictionary.com/us/dictionary/american/ground_2,GROUND (verb) definition and synonyms | Macmillan Dictionary,"transitive ​mainly journalismin sport, to put or hit the ball into the ground, or to <br>
make it roll along the ground. Synonyms and related words. +"
