Search Term,URL,Site Title,HTML Snippet
hospital  synonyms,https://www.thesaurus.com/browse/hospital,"Hospital Synonyms, Hospital Antonyms | Thesaurus.com","Synonyms for &middot; clinic &middot; emergency room &middot; hospice &middot; institution &middot; nursing home &middot; <br>
ward &middot; infirmary &middot; surgery."
hospital  synonyms,https://www.merriam-webster.com/thesaurus/hospital,Hospital Synonyms | Merriam-Webster Thesaurus,"Synonyms of hospital &middot; asylum, &middot; bedlam, &middot; institution, &middot; madhouse."
hospital  synonyms,https://www.thesaurus.com/browse/hospitals,"Hospitals Synonyms, Hospitals Antonyms | Thesaurus.com","Synonyms for &middot; clinic &middot; emergency room &middot; hospice &middot; institution &middot; nursing home &middot; <br>
ward &middot; infirmary &middot; surgery."
hospital  synonyms,https://thesaurus.yourdictionary.com/hospital,Hospital synonyms | Best 37 synonyms for hospital,"Category &middot; sanitarium (US) Alternative spelling of sanatorium. &middot; medical center a <br>
health facility where patients receive treatment &middot; clinic &middot; Red Cross hospital &middot; <br>
mental-&nbsp;..."
hospital  synonyms,https://www.wordhippo.com/what-is/another-word-for/hospital.html,What is another word for hospital? | Hospital Synonyms - WordHippo ...,"Find 919 synonyms for hospital and other similar words that you can use instead <br>
based on 5 separate contexts from our thesaurus."
hospital  synonyms,https://www.powerthesaurus.org/hospital/synonyms,696 Hospital synonyms - Other Words for Hospital,"Hospital synonyms. Top synonyms for hospital (other words for hospital) are <br>
clinic, infirmary and sanatorium."
hospital  synonyms,https://www.synonyms.com/synonym/hospital,Hospital Synonyms & Antonyms | Synonyms.com,"Find all the synonyms and alternative words for hospital at Synonyms.com, the <br>
largest free online thesaurus, antonyms, definitions and translations resource on<br>
&nbsp;..."
hospital  synonyms,http://www.thesaurus.com/browse/field-hospital/noun,"Field-hospital Synonyms, Field-hospital Antonyms | Thesaurus.com","Synonyms for field-hospital at Thesaurus.com with free online thesaurus, <br>
antonyms, and definitions. Find descriptive alternatives for field-hospital."
hospital  synonyms,https://www.collinsdictionary.com/dictionary/english-thesaurus/hospital,Hospital Synonyms | Collins English Thesaurus,"Another word for hospital: infirmary, clinic, nursing home, hospice, medical <br>
institution | Collins English Thesaurus."
hospital  synonyms,http://thesaurus.com/browse/Military-hospital?o=100074,"Military hospital Synonyms, Military hospital Antonyms | Thesaurus ...","SWAP military hospital IN A SENTENCE. Join our early testers! See how your <br>
sentence looks with different synonyms. TRY NOW. Characters: 0/140. WORD OF<br>
&nbsp;..."
