Search Term,URL,Site Title,HTML Snippet
life  synonyms,https://www.thesaurus.com/browse/life,"Life Synonyms, Life Antonyms | Thesaurus.com","life &middot; nounanimation, spirit &middot; nounexistence, duration &middot; nounbeing &middot; nounhistory, <br>
biography &middot; nounperson&#39;s experiences&nbsp;..."
life  synonyms,https://www.merriam-webster.com/thesaurus/life,"Life Synonyms, Life Antonyms | Merriam-Webster Thesaurus","Synonyms &amp; Antonyms of life &middot; 1 a history of a person&#39;s life a renowned historian <br>
who has written lives of several early presidents &middot; 2 a member of the human race &middot; <br>
3&nbsp;..."
life  synonyms,https://www.thesaurus.com/browse/for%20life,"For life Synonyms, For life Antonyms | Thesaurus.com","Synonyms for &middot; constant &middot; continuing &middot; deep-rooted &middot; enduring &middot; inveterate &middot; long-<br>
lasting &middot; permanent &middot; persistent."
life  synonyms,https://thesaurus.yourdictionary.com/life,Life synonyms | Best 167 synonyms for life,"Find another word for life. In this page you can discover 167 synonyms, antonyms<br>
, idiomatic expressions, and related words for life, like: one&#39;s natural life,&nbsp;..."
life  synonyms,https://www.wordhippo.com/what-is/another-word-for/life.html,What is another word for life? | Life Synonyms - WordHippo Thesaurus,"Find 3432 synonyms for life and other similar words that you can use instead <br>
based on 27 separate contexts from our thesaurus."
life  synonyms,https://www.powerthesaurus.org/life/synonyms,4 530 Life synonyms - Other Words for Life,"Life synonyms. Top synonyms for life (other words for life) are living, live and <br>
lifetime."
life  synonyms,https://www.synonym.com/synonyms/life,Synonyms and Antonyms for life | Synonym.com,"Synonym.com is the web&#39;s best resource for English synonyms, antonyms, and <br>
definitions."
life  synonyms,http://www.thesaurus.com/browse/social-life?qsrc=2446,"Social life Synonyms, Social life Antonyms | Thesaurus.com","Synonyms for social life at Thesaurus.com with free online thesaurus, antonyms, <br>
and definitions. Find descriptive alternatives for social life."
life  synonyms,https://www.macmillanthesaurus.com/life,life synonyms with definition | Macmillan Thesaurus,"Synonyms for &#39;life&#39;: lifespan, lifetime, universe, life expectancy, things, thing."
life  synonyms,https://www.collinsdictionary.com/dictionary/english-thesaurus/life,Life Synonyms | Collins English Thesaurus,"Another word for life: being, existence, living, breath, entity | Collins English <br>
Thesaurus."
