Search Term,URL,Site Title,HTML Snippet
limousine  synonyms,https://www.thesaurus.com/browse/limousine,"Limousine Synonyms, Limousine Antonyms | Thesaurus.com","RELATED WORDS AND SYNONYMS FOR LIMOUSINE. automobile. nounland <br>
vehicle; car. auto &middot; bucket of&nbsp;..."
limousine  synonyms,https://www.powerthesaurus.org/limousine/synonyms,119 Limousine synonyms - Other Words for Limousine,"Limousine synonyms. Top synonyms for limousine (other words for limousine) <br>
are limo, town car and automobile."
limousine  synonyms,https://www.merriam-webster.com/thesaurus/limousine,Limousine Synonyms | Merriam-Webster Thesaurus,"54 synonyms and near synonyms of limousine from the Merriam-Webster <br>
Thesaurus. Find another word for limousine."
limousine  synonyms,https://www.wordhippo.com/what-is/another-word-for/limousine.html,What is another word for limousine? | Limousine Synonyms ...,"Find 57 synonyms for limousine and other similar words that you can use instead <br>
from our thesaurus."
limousine  synonyms,https://www.synonym.com/synonyms/limousine,Synonyms and Antonyms for limousine | Synonym.com,"Synonym.com is the web&#39;s best resource for English synonyms, antonyms, and <br>
definitions."
limousine  synonyms,https://www.thesaurus.net/limousine,Synonyms for LIMOUSINE - Thesaurus.net,"Synonyms for: Minibus, YELLOW CAB, pick-up, tractor trailer, road train, luxury <br>
car, steamer, checker cab, golf cart, flivver, articulated vehicle, racer, microbus,&nbsp;..."
limousine  synonyms,https://www.synonyms.com/synonym/limousine,Limousine Synonyms & Antonyms | Synonyms.com,"Find all the synonyms and alternative words for limousine at Synonyms.com, the <br>
largest free online thesaurus, antonyms, definitions and translations resource&nbsp;..."
limousine  synonyms,https://www.macmillandictionary.com/us/dictionary/american/limousine,LIMOUSINE (noun) definition and synonyms | Macmillan Dictionary,"Definition of LIMOUSINE (noun): large expensive comfortable car; small bus that <br>
takes people to airports."
limousine  synonyms,https://www.macmillanthesaurus.com/limousine,limousine synonyms with definition | Macmillan Thesaurus,"Related terms for &#39;limousine&#39;: a good runner, automatic, cabriolet, classic car, <br>
compact, convertible, coupé, courtesy car, cruiser, demo, dragster."
limousine  synonyms,https://www.synonyms.com/synonym/LIMO,LIMO Synonyms & Antonyms | Synonyms.com,"Find all the synonyms and alternative words for LIMO at Synonyms.com, the <br>
largest free online thesaurus, antonyms, definitions and translations resource on <br>
the&nbsp;..."
