Search Term,URL,Site Title,HTML Snippet
loch ness  synonyms,https://www.thesaurus.com/browse/loch%20ness%20monster,Synonyms for Loch Ness monster,"Synonyms for Loch Ness monster. giant squid &middot; hydra &middot; kraken &middot; leviathan &middot; oarfish<br>
. MOST&nbsp;..."
loch ness  synonyms,https://www.synonym.com/synonyms/loch-ness,Synonyms and Antonyms for loch-ness | Synonym.com,"Synonym.com is the web&#39;s best resource for English synonyms, antonyms, and <br>
definitions."
loch ness  synonyms,https://www.thesaurus.com/browse/loch%20ness%20monsters,Synonyms for loch ness monsters,"Synonyms for loch ness monsters. Loch Ness monster &middot; giant squid &middot; hydra &middot; <br>
kraken &middot; leviathan &middot; oarfish. MOST RELEVANT. Roget&#39;s 21st Century Thesaurus,<br>
&nbsp;..."
loch ness  synonyms,https://www.thesaurus.net/loch%20ness%20monster,Synonyms for LOCH NESS MONSTER - Thesaurus.net,"Synonyms for: nessie, sea serpent, loch ness monster, Hydras, giant squids, <br>
Kraken, leviathans, krakens, Hydrae, leviathan, loch ness monsters, sea-serpent,<br>
&nbsp;..."
loch ness  synonyms,https://www.macmillandictionary.com/us/dictionary/american/the-loch-ness-monster,THE LOCH NESS MONSTER (noun) definition and synonyms ...,"the Loch Ness monster ​Definitions and Synonyms. ​noun. UK   /ˌlɒx nes <br>
ˈmɒnstə(r)&nbsp;..."
loch ness  synonyms,https://www.thefreedictionary.com/Loch+Ness,Loch Ness - definition of Loch Ness by The Free Dictionary,"Loch Ness synonyms, Loch Ness pronunciation, Loch Ness translation, English <br>
dictionary definition of Loch Ness. n. a headland; promontory; cape. a suffix&nbsp;..."
loch ness  synonyms,https://www.freethesaurus.com/The+Monster+of+Loch+Ness,"The Monster of Loch Ness synonyms, The Monster of Loch Ness ...","Synonyms for The Monster of Loch Ness in Free Thesaurus. Antonyms for The <br>
Monster of Loch Ness. 1 synonym for Loch Ness monster: Nessie. What are&nbsp;..."
loch ness  synonyms,https://www.macmillanthesaurus.com/us/the-loch-ness-monster,the Loch Ness monster synonyms with definition | Macmillan ...,"Related terms for &#39;the Loch Ness monster&#39;: the Abominable Snowman, bogey, <br>
bogeyman, boogeyman, bunyip, centaur, chimaera, chimera, creature, daemon."
loch ness  synonyms,https://www.freethesaurus.com/Lochness,"Lochness synonyms, Lochness antonyms - FreeThesaurus.com","Synonyms for Lochness in Free Thesaurus. Antonyms for Lochness. 3 words <br>
related to Loch Ness: Scotland, Loch Ness monster, Nessie. What are synonyms <br>
for&nbsp;..."
loch ness  synonyms,http://www.freethesaurus.com/The+Loch+Ness+Monster,"The Loch Ness Monster synonyms, The Loch Ness Monster ...","Synonyms for The Loch Ness Monster in Free Thesaurus. Antonyms for The Loch <br>
Ness Monster. 1 synonym for Loch Ness monster: Nessie. What are synonyms&nbsp;..."
