Search Term,URL,Site Title,HTML Snippet
nurse  synonyms,https://www.thesaurus.com/browse/nurse,"Nurse Synonyms, Nurse Antonyms | Thesaurus.com","Synonyms for &middot; assistant &middot; attendant &middot; medic &middot; registered nurse &middot; therapist &middot; RN &middot; <br>
caretaker &middot; sitter."
nurse  synonyms,https://www.merriam-webster.com/thesaurus/nurse,"Nurse Synonyms, Nurse Antonyms | Merriam-Webster Thesaurus","Synonyms of nurse &middot; 1 to attend to the needs and comforts of &middot; 2 to give milk to <br>
from the breast &middot; 3 to keep in one&#39;s mind or heart &middot; 4 to treat with great or <br>
excessive care."
nurse  synonyms,https://www.thesaurus.com/browse/nursing,"Nursing Synonyms, Nursing Antonyms | Thesaurus.com","Synonyms for nursing &middot; attending &middot; cherishing &middot; fostering &middot; tending &middot; caring for &middot; <br>
watching over."
nurse  synonyms,https://thesaurus.yourdictionary.com/nurse,Nurse synonyms | Best 78 synonyms for nurse,"The best 78 synonyms for nurse, including: immunize, attendant, male nurse, <br>
practical-nurse, orderly, health care provider, be a father to, licensed practical&nbsp;..."
nurse  synonyms,https://www.wordhippo.com/what-is/another-word-for/nurse.html,What is another word for nurse? | Nurse Synonyms - WordHippo ...,"Find 3112 synonyms for nurse and other similar words that you can use instead <br>
based on 21 separate contexts from our thesaurus."
nurse  synonyms,https://www.powerthesaurus.org/nurse,1 632 Nurse Synonyms and 85 Nurse Antonyms | Nurse in Thesaurus,Synonyms (Other Words) for Nurse &amp; Antonyms (Opposite Meaning) for Nurse.
nurse  synonyms,https://www.collinsdictionary.com/dictionary/english-thesaurus/nurse,Nurse Synonyms | Collins English Thesaurus,"Another word for nurse: carer, caregiver, angel | Collins English Thesaurus. ... <br>
Patients are dying because of an acute shortage of nurses. Synonyms. carer."
nurse  synonyms,https://www.synonym.com/synonyms/nurse,Synonyms and Antonyms for nurse | Synonym.com,"1. nurse &middot; 2. foster-nurse &middot; 3. wet-nurse &middot; 4. nurse-midwife &middot; 5. nurse &middot; 6. nurse &middot; 7. <br>
nurse &middot; 8. nurse."
nurse  synonyms,https://www.synonyms.com/synonym/nurse,Nurse Synonyms & Antonyms | Synonyms.com,"Princeton&#39;s WordNet(0.00 / 0 votes)Rate these synonyms: &middot; nurse(noun) &middot; nanny, <br>
nursemaid, nurse(verb) &middot; nurse(verb) &middot; harbor, harbour, hold, entertain, nurse(<br>
verb)."
nurse  synonyms,https://www.macmillanthesaurus.com/nurse,nurse synonyms with definition | Macmillan Thesaurus,"Related terms for &#39;nurse&#39;: charge nurse, district nurse, health visitor, matron, <br>
midwife, nurse practitioner, registered nurse, RN, sister, Sister."
