Search Term,URL,Site Title,HTML Snippet
pupil  synonyms,https://www.thesaurus.com/browse/pupil,"Pupil Synonyms, Pupil Antonyms | Thesaurus.com","RELATED WORDS AND SYNONYMS FOR PUPIL. academic. nounscholar or <br>
university/college teacher. academician&nbsp;..."
pupil  synonyms,https://www.merriam-webster.com/thesaurus/pupil,"Pupil Synonyms, Pupil Antonyms | Merriam-Webster Thesaurus","Synonyms &amp; Antonyms of pupil &middot; day student, &middot; preppy &middot; (or preppie), &middot; schoolboy, &middot; <br>
schoolchild, &middot; schoolgirl."
pupil  synonyms,https://www.lexico.com/synonym/pupil,Pupil | Synonyms of Pupil by Lexico,"2&#39;will you take me on as your pupil?&#39; SYNONYMS. disciple, follower, learner, <br>
student, protégé, apprentice, trainee, mentee, probationer, novice, recruit,&nbsp;..."
pupil  synonyms,https://thesaurus.yourdictionary.com/pupil,Pupil synonyms | Best 34 synonyms for pupil,"The best 34 synonyms for pupil, including: student, schoolchild, disciple, protegÃ<br>
©, follower, abecedarian, apostolic, catechumenal, scholarly, scholastic,&nbsp;..."
pupil  synonyms,https://www.wordhippo.com/what-is/another-word-for/pupil.html,What is another word for pupil? | Pupil Synonyms - WordHippo ...,"Find 1300 synonyms for pupil and other similar words that you can use instead <br>
based on 7 separate contexts from our thesaurus."
pupil  synonyms,https://www.collinsdictionary.com/us/dictionary/english-thesaurus/pupil,Pupil Synonyms | Collins English Thesaurus,"Another word for pupil: student, scholar, schoolboy or schoolgirl, schoolchild, <br>
teacher | Collins English Thesaurus."
pupil  synonyms,https://www.synonyms.com/synonym/pupil,Pupil Synonyms & Antonyms | Synonyms.com,"Jan 19, 2014 ... Princeton&#39;s WordNet(1.00 / 2 votes)Rate these synonyms: &middot; student, pupil, <br>
educatee(noun) a learner who is enrolled in an educational institution."
pupil  synonyms,https://www.macmillandictionary.com/us/dictionary/american/pupil,PUPIL (noun) definition and synonyms | Macmillan Dictionary,"Definition of PUPIL (noun): someone going to school or having lessons; black <br>
round part in middle of eye."
pupil  synonyms,https://www.synonym.com/synonyms/pupil,Synonyms and Antonyms for pupil | Synonym.com,"Synonym.com is the web&#39;s best resource for English synonyms, antonyms, and <br>
definitions."
pupil  synonyms,https://www.dictionary.com/browse/pupil,Pupil | Definition of Pupil at Dictionary.com,"synonym study for pupil. 1. Pupil, disciple, scholar, student refer to a person who <br>
is studying, usually in a school. A pupil is one under the close supervision of a&nbsp;..."
