Search Term,URL,Site Title,HTML Snippet
shadow  synonyms,https://www.thesaurus.com/browse/shadow,"Shadow Synonyms, Shadow Antonyms | Thesaurus.com",Synonyms for &middot; dark &middot; gloom &middot; obscurity &middot; shade &middot; cover &middot; dusk &middot; shelter &middot; umbrage.
shadow  synonyms,https://www.merriam-webster.com/thesaurus/shadow,"Shadow Synonyms, Shadow Antonyms | Merriam-Webster Thesaurus","Synonyms &amp; Antonyms of shadow &middot; 1 partial darkness due to the obstruction of <br>
light rays &middot; 2 shadows plural a time or place of little or no light &middot; 3 a tiny often <br>
physical&nbsp;..."
shadow  synonyms,https://www.thesaurus.com/browse/shadows,"Shadows Synonyms, Shadows Antonyms | Thesaurus.com","RELATED WORDS AND SYNONYMS FOR SHADOWS. dark. nounplace, time <br>
without light. caliginosity &middot; darkness&nbsp;..."
shadow  synonyms,https://thesaurus.yourdictionary.com/shadow,Shadow synonyms | Best 102 synonyms for shadow,"The best 102 synonyms for shadow, including: umbra, shade, adumbrate, <br>
darkness, adumbration, cloud, penumbra, eidolon, visitant, watcher, obscuration <br>
and&nbsp;..."
shadow  synonyms,https://www.wordhippo.com/what-is/another-word-for/shadow.html,What is another word for shadow? | Shadow Synonyms - WordHippo ...,"Find 4023 synonyms for shadow and other similar words that you can use <br>
instead based on 25 separate contexts from our thesaurus."
shadow  synonyms,https://www.powerthesaurus.org/shadows/synonyms,531 Shadows synonyms - Other Words for Shadows,"Shadows synonyms. Top synonyms for shadows (other words for shadows) are <br>
dark, shade and gloom."
shadow  synonyms,https://www.synonyms.com/synonym/shadow,Shadow Synonyms & Antonyms | Synonyms.com,"Princeton&#39;s WordNet(0.00 / 0 votes)Rate these synonyms: &middot; shadow(noun) shade <br>
within clear boundaries &middot; darkness, dark, shadow(noun) an unilluminated area."
shadow  synonyms,https://www.lexico.com/synonym/shadow,Shadow | Synonyms of Shadow by Lexico,"noun &middot; 1&#39;a dim night light cast her shadow against the closed double doors&#39; &middot; 2&#39;the <br>
north side of the cathedral was deep in shadow&#39; &middot; 3&#39;for years, unemployment has<br>
&nbsp;..."
shadow  synonyms,http://www.thesaurus.com/browse/shadow/10,"Shadow Synonyms, Shadow Antonyms: Page 10 of 117 | Thesaurus ...","Synonyms for shadow at Thesaurus.com with free online thesaurus, antonyms, <br>
and definitions. Find descriptive alternatives for shadow."
shadow  synonyms,https://www.collinsdictionary.com/us/dictionary/english-thesaurus/shadow,Shadow Synonyms | Collins English Thesaurus,"Another word for shadow: silhouette, shape, outline, profile, penumbra | Collins <br>
English Thesaurus."
