Search Term,URL,Site Title,HTML Snippet
shop  synonyms,https://www.thesaurus.com/browse/shop,"Shop Synonyms, Shop Antonyms | Thesaurus.com","Synonyms for &middot; boutique &middot; chain &middot; department store &middot; emporium &middot; market &middot; mill &middot; <br>
outlet &middot; store."
shop  synonyms,https://www.merriam-webster.com/thesaurus/shop,"Shop Synonyms, Shop Antonyms | Merriam-Webster Thesaurus","Synonyms of shop &middot; 1 also shoppe an establishment where goods are sold to <br>
consumers the only shop that has that video game in stock is halfway across the <br>
state."
shop  synonyms,https://www.wordhippo.com/what-is/another-word-for/shop.html,What is another word for shop? | Shop Synonyms - WordHippo ...,"Find 3248 synonyms for shop and other similar words that you can use instead <br>
based on 15 separate contexts from our thesaurus."
shop  synonyms,https://thesaurus.yourdictionary.com/shop,Shop synonyms | Best 45 synonyms for shop,"The best 45 synonyms for shop, including: studio, office, sell, patronize, buy at, <br>
store, department-store, retail store, novelty shop, workshop, repair shop and&nbsp;..."
shop  synonyms,https://www.powerthesaurus.org/shop/synonyms,2 272 Shop synonyms - Other Words for Shop,"Shop synonyms. Top synonyms for shop (other words for shop) are store, <br>
shopping and market."
shop  synonyms,https://www.macmillandictionary.com/us/thesaurus-category/american/types-of-shop,types of shop - synonyms and related words | Macmillan Dictionary,"butcher. noun. someone whose job is to sell meat and sometimes also to kill <br>
animals for meat. The shop they work in is called a butcher&#39;s or a butcher&#39;s shop."
shop  synonyms,https://www.macmillanthesaurus.com/shop,shop synonyms with definition | Macmillan Thesaurus,"Synonyms for &#39;shop&#39;: pop-up, outlet, kiosk, store, emporium, mart, exchange, point <br>
of sale, parlour, parlor, shoppe, spaza, stockist."
shop  synonyms,https://thesaurus.com/browse/like+bull+in+a+china+shop?jss=1,Synonyms for like a bull in a china shop,"Synonyms for like a bull in a china shop at Thesaurus.com with free online <br>
thesaurus, antonyms, and definitions. Find descriptive alternatives for like a bull <br>
in a&nbsp;..."
shop  synonyms,https://www.lexico.com/synonym/shop,Shop | Synonyms of Shop by Lexico,"establishment, emporium, department store, supermarket, hypermarket, <br>
superstore, warehouse club, warehouse, factory outlet, chain store, mall, <br>
shopping mall,&nbsp;..."
shop  synonyms,https://www.synonym.com/synonyms/shop,Synonyms and Antonyms for shop | Synonym.com,"Synonym.com is the web&#39;s best resource for English synonyms, antonyms, and <br>
definitions."
