Search Term,URL,Site Title,HTML Snippet
sound  synonyms,https://www.thesaurus.com/browse/sound,"Sound Synonyms, Sound Antonyms | Thesaurus.com","sound &middot; adj. complete, healthy &middot; adj. logical, reasonable &middot; adj. accepted, <br>
established &middot; nounsomething heard or audible &middot; verbproduce noise &middot; verbgive the <br>
impression&nbsp;..."
sound  synonyms,https://www.merriam-webster.com/thesaurus/sound,"Sound Synonyms, Sound Antonyms | Merriam-Webster Thesaurus","How is the word sound different from other adjectives like it? Some common <br>
synonyms of sound are cogent, convincing, telling, and valid. While all these <br>
words&nbsp;..."
sound  synonyms,https://www.thesaurus.com/browse/sounds,"Sounds Synonyms, Sounds Antonyms | Thesaurus.com","sounds &middot; nounsomething heard or audible &middot; verbproduce noise &middot; verbgive the <br>
impression&nbsp;..."
sound  synonyms,https://thesaurus.yourdictionary.com/sound,Sound synonyms | Best 281 synonyms for sound,"The best 281 synonyms for sound, including: harmony, well, clank, hale, discord, <br>
sapient, unimpaired, undecayed, valid, allowed, fair and more... Find another&nbsp;..."
sound  synonyms,https://www.wordhippo.com/what-is/another-word-for/sound.html,What is another word for sound? | Sound Synonyms - WordHippo ...,"Find 16830 synonyms for sound and other similar words that you can use instead <br>
based on 76 separate contexts from our thesaurus."
sound  synonyms,https://www.powerthesaurus.org/sound/synonyms,7 388 Sound synonyms - Other Words for Sound,"Sound synonyms. Top synonyms for sound (other words for sound) are strong, <br>
stable and persistent."
sound  synonyms,https://www.lexico.com/synonym/sound,Sound | Synonyms of Sound by Lexico,"verb &middot; 1&#39;the buzzer sounded&#39; SYNONYMS go, go off, resonate, resound, <br>
reverberate, blow, blare &middot; 2&#39;engine drivers must sound their whistle&#39; SYNONYMS <br>
operate,&nbsp;..."
sound  synonyms,http://www.thesaurus.com/browse/un%20sound/1,"Un sound Synonyms, Un sound Antonyms | Thesaurus.com","Synonyms for un sound at Thesaurus.com with free online thesaurus, antonyms, <br>
and definitions. Find descriptive alternatives for un sound."
sound  synonyms,https://www.macmillanthesaurus.com/sound,sound synonyms with definition | Macmillan Thesaurus,"Related terms for &#39;sound&#39;: intensity, noise, pattern, resonance, reverberation, <br>
strength."
sound  synonyms,https://www.macmillandictionary.com/us/dictionary/american/sound_3,SOUND (adjective) definition and synonyms | Macmillan Dictionary,"Definition of SOUND (adjective): effective/reliable; thorough; healthy; in good <br>
condition; about sleep; about punishment."
