Search Term,URL,Site Title,HTML Snippet
spell  synonyms,https://www.thesaurus.com/browse/spell,"Spell Synonyms, Spell Antonyms | Thesaurus.com","Synonyms for spell at Thesaurus.com with free online thesaurus, antonyms, and <br>
definitions. Find descriptive alternatives for spell."
spell  synonyms,https://www.merriam-webster.com/thesaurus/spell,"Spell Synonyms, Spell Antonyms | Merriam-Webster Thesaurus","Synonyms &amp; Antonyms of spell &middot; bewitch, &middot; charm, &middot; enchant, &middot; ensorcell &middot; (or <br>
ensorcel), &middot; hex, &middot; overlook, &middot; strike."
spell  synonyms,https://www.thesaurus.com/browse/magic%20spell,"Magic spell Synonyms, Magic spell Antonyms | Thesaurus.com","Synonyms for magic spell at Thesaurus.com with free online thesaurus, <br>
antonyms, and definitions. Find descriptive alternatives for magic spell."
spell  synonyms,https://www.thesaurus.net/magic%20spell,Synonyms for MAGIC SPELL - Thesaurus.net,"Synonyms for MAGIC SPELL: mumbo jumbo, Cantrip, evil eye, glamour, weird, <br>
wanga, curse, exorcism, malocchio, magic spell, charm, magical spell, spell,&nbsp;..."
spell  synonyms,https://www.wordhippo.com/what-is/another-word-for/spell.html,What is another word for spell? | Spell Synonyms - WordHippo ...,"Find 8192 synonyms for spell and other similar words that you can use instead <br>
based on 31 separate contexts from our thesaurus."
spell  synonyms,https://thesaurus.yourdictionary.com/spell,Spell synonyms | Best 84 synonyms for spell,"The best 84 synonyms for spell, including: talisman, interval, chanting, magic, <br>
decipher, amulet, term, stroke, spasm, turn, charm and more... Find another word<br>
&nbsp;..."
spell  synonyms,http://www.thesaurus.com/browse/magic-spell?jss=0,"Magic spell Synonyms, Magic spell Antonyms | Thesaurus.com","SWAP magic spell IN A SENTENCE. Join our early testers! See how your <br>
sentence looks with different synonyms. TRY NOW. Characters: 0/140&nbsp;..."
spell  synonyms,https://www.synonyms.com/synonym/spell,Spell Synonyms & Antonyms | Synonyms.com,"Find all the synonyms and alternative words for spell at Synonyms.com, the <br>
largest free online thesaurus, antonyms, definitions and translations resource on <br>
the&nbsp;..."
spell  synonyms,https://www.powerthesaurus.org/magic_spell/synonyms,86 Magic Spell synonyms - Other Words for Magic Spell,"Magic Spell synonyms. Top synonyms for magic spell (other words for magic <br>
spell) are charm, spell and incantation."
spell  synonyms,https://www.collinsdictionary.com/dictionary/english-thesaurus/spell,Spell Synonyms | Collins English Thesaurus,"a word used in magic spells, which is supposed to possess magic powers. <br>
Justice here represents nothing more than magical abracadabra. Synonyms. <br>
spell,."
