Search Term,URL,Site Title,HTML Snippet
square  synonyms,https://www.thesaurus.com/browse/square,"Square Synonyms, Square Antonyms | Thesaurus.com","Synonyms for square at Thesaurus.com with free online thesaurus, antonyms, <br>
and definitions. Find descriptive alternatives for square."
square  synonyms,https://www.merriam-webster.com/thesaurus/square,"Square Synonyms, Square Antonyms | Merriam-Webster Thesaurus","Synonyms &amp; Antonyms of square &middot; candid, &middot; disinterested, &middot; dispassionate, &middot; equal<br>
, &middot; equitable, &middot; evenhanded, &middot; fair, &middot; impartial,&nbsp;..."
square  synonyms,https://www.thesaurus.com/browse/square%20with,"Square with Synonyms, Square with Antonyms | Thesaurus.com","Synonyms for square with at Thesaurus.com with free online thesaurus, <br>
antonyms, and definitions. Find descriptive alternatives for square with."
square  synonyms,https://thesaurus.yourdictionary.com/square,Square synonyms | Best 132 synonyms for square,"The best 132 synonyms for square, including: four-sided, equilateral, right-angled<br>
, , foursquare, squared, equal-sided rectangle, rectangular, rectangle, stuffy,&nbsp;..."
square  synonyms,https://www.wordhippo.com/what-is/another-word-for/square.html,What is another word for square? | Square Synonyms - WordHippo ...,"What is another word for square? Contexts ▽△. Adjective. Having the shape or <br>
approximate shape of a square or&nbsp;..."
square  synonyms,https://www.lexico.com/synonym/square,Square | Synonyms of Square by Lexico,"adjective &middot; 1&#39;a square table&#39; SYNONYMS quadrilateral, rectangular, oblong, right-<br>
angled, at right angles, perpendicular &middot; 2&#39;the sides were square at half-time&#39;."
square  synonyms,https://www.synonym.com/synonyms/square,Synonyms and Antonyms for square | Synonym.com,"Synonym.com is the web&#39;s best resource for English synonyms, antonyms, and <br>
definitions."
square  synonyms,https://www.collinsdictionary.com/us/dictionary/english-thesaurus/square,Square Synonyms | Collins English Thesaurus,"Another word for square: town square, close, quad, market square, quadrangle | <br>
Collins English Thesaurus."
square  synonyms,https://www.powerthesaurus.org/square/synonyms,4 163 Square synonyms - Other Words for Square,"Square synonyms. Top synonyms for square (other words for square) are even, <br>
settle and straight."
square  synonyms,https://www.synonyms.com/synonym/SQUARE,SQUARE Synonyms & Antonyms | Synonyms.com,"Princeton&#39;s WordNet(0.00 / 0 votes)Rate these synonyms: square, foursquare(<br>
noun). (geometry) a plane rectangle with four equal sides and four right angles;&nbsp;..."
