Search Term,URL,Site Title,HTML Snippet
tablet  synonyms,https://www.thesaurus.com/browse/tablet,"Tablet Synonyms, Tablet Antonyms | Thesaurus.com",Synonyms for &middot; book &middot; folder &middot; notebook &middot; pad &middot; quire &middot; ream &middot; scratch &middot; sheets.
tablet  synonyms,https://www.merriam-webster.com/thesaurus/tablet,Tablet Synonyms | Merriam-Webster Thesaurus,"Synonyms of tablet &middot; cure, &middot; drug, &middot; medication, &middot; medicinal, &middot; pharmaceutical, &middot; <br>
physic, &middot; remedy, &middot; specific."
tablet  synonyms,https://thesaurus.yourdictionary.com/tablet,Tablet synonyms | Best 40 synonyms for tablet,"The best 40 synonyms for tablet, including: medicine, pill, capsule, slab, stone, <br>
gravestone, marker, inscription, folder, pad, sheaf and more... Find another word<br>
&nbsp;..."
tablet  synonyms,https://www.wordhippo.com/what-is/another-word-for/tablet.html,What is another word for tablet? | Tablet Synonyms - WordHippo ...,"tablet &middot; A number of sheets of blank paper fastened together at one edge &middot; A small <br>
disc or cylinder of a compressed solid substance, typically a measured amount of<br>
&nbsp;..."
tablet  synonyms,https://www.synonyms.com/synonym/tablet,Tablet Synonyms & Antonyms | Synonyms.com,"Sep 3, 2019 ... Wiktionary(0.00 / 0 votes)Rate these synonyms: &middot; tablet(noun) Synonyms: &middot; tablet(<br>
noun) a pill; a small, easily swallowed portion of a medication or&nbsp;..."
tablet  synonyms,https://www.powerthesaurus.org/tablet,983 Tablet Synonyms and 6 Tablet Antonyms | Tablet in Thesaurus,Synonyms (Other Words) for Tablet &amp; Antonyms (Opposite Meaning) for Tablet.
tablet  synonyms,https://www.collinsdictionary.com/us/dictionary/english-thesaurus/tablet,Tablet Synonyms | Collins English Thesaurus,"Another word for tablet: pill, capsule, pellet, tab, pastille | Collins English <br>
Thesaurus."
tablet  synonyms,https://www.synonym.com/synonyms/tablet,Synonyms and Antonyms for tablet | Synonym.com,"Synonym.com is the web&#39;s best resource for English synonyms, antonyms, and <br>
definitions."
tablet  synonyms,https://www.freethesaurus.com/Android+tablet,"Android tablet synonyms, Android tablet antonyms - FreeThesaurus ...","Synonyms for Android tablet in Free Thesaurus. Antonyms for Android tablet. 8 <br>
synonyms for android: robot, automaton, humanoid, cyborg, mechanical man,&nbsp;..."
tablet  synonyms,https://www.lexico.com/synonym/tablet,Tablet | Synonyms of Tablet by Lexico,"noun &middot; 1&#39;a carved stone tablet&#39; SYNONYMS slab, panel, plaque, plate, sign stone, <br>
gravestone, headstone, tombstone, memorial &middot; 2&#39;a headache tablet&#39;."
