Search Term,URL,Site Title,HTML Snippet
war  synonyms,https://www.thesaurus.com/browse/war,"War Synonyms, War Antonyms | Thesaurus.com",Synonyms for &middot; battle &middot; combat &middot; fighting &middot; hostility &middot; strife &middot; strike &middot; struggle &middot; warfare.
war  synonyms,https://www.merriam-webster.com/thesaurus/war,"War Synonyms, War Antonyms | Merriam-Webster Thesaurus","Synonyms &amp; Antonyms of war &middot; 1 a state of armed violent struggle between states<br>
, nations, or groups the war was the result of ethnic tensions that had been&nbsp;..."
war  synonyms,https://www.thesaurus.com/browse/wars,"Wars Synonyms, Wars Antonyms | Thesaurus.com",Synonyms for &middot; battle &middot; combat &middot; fighting &middot; hostility &middot; strife &middot; strike &middot; struggle &middot; warfare.
war  synonyms,https://thesaurus.yourdictionary.com/war,War synonyms | Best 86 synonyms for war,"The best 86 synonyms for war, including: fighting, go-to-war, contest, battle, <br>
march against, conflict, combat, agree, fight, make war on, contend and more."
war  synonyms,https://www.wordhippo.com/what-is/another-word-for/war.html,What is another word for war? | War Synonyms - WordHippo ...,"Find 3951 synonyms for war and other similar words that you can use instead <br>
based on 10 separate contexts from our thesaurus."
war  synonyms,https://www.lexico.com/synonym/war,War | Synonyms of War by Lexico,"verb &middot; fight, battle, combat, wage war, make war, be at war, be in conflict, conduct <br>
a war, do battle, join battle, take the field, take up arms &middot; feud, quarrel, struggle,&nbsp;..."
war  synonyms,https://www.powerthesaurus.org/war,963 War Synonyms and 132 War Antonyms | War in Thesaurus,Synonyms (Other Words) for War &amp; Antonyms (Opposite Meaning) for War.
war  synonyms,https://www.macmillanthesaurus.com/war,war synonyms with definition | Macmillan Thesaurus,"Synonyms for &#39;war&#39;: battle, campaign, struggle, mission, assault, combat, skirmish, <br>
incursion, fight, action, air cover, ambush, amphibious."
war  synonyms,https://www.collinsdictionary.com/us/dictionary/english-thesaurus/war,War Synonyms | Collins English Thesaurus,"Another word for war: conflict, drive, attack, fighting, fight | Collins English <br>
Thesaurus."
war  synonyms,https://www.synonyms.com/synonym/war,War Synonyms & Antonyms | Synonyms.com,"Find all the synonyms and alternative words for war at Synonyms.com, the largest <br>
free online thesaurus, antonyms, definitions and translations resource on the&nbsp;..."
