{
    "kind": "customsearch#search",
    "url": {
        "type": "application/json",
        "template": "https://www.googleapis.com/customsearch/v1?q={searchTerms}&num={count?}&start={startIndex?}&lr={language?}&safe={safe?}&cx={cx?}&sort={sort?}&filter={filter?}&gl={gl?}&cr={cr?}&googlehost={googleHost?}&c2coff={disableCnTwTranslation?}&hq={hq?}&hl={hl?}&siteSearch={siteSearch?}&siteSearchFilter={siteSearchFilter?}&exactTerms={exactTerms?}&excludeTerms={excludeTerms?}&linkSite={linkSite?}&orTerms={orTerms?}&relatedSite={relatedSite?}&dateRestrict={dateRestrict?}&lowRange={lowRange?}&highRange={highRange?}&searchType={searchType}&fileType={fileType?}&rights={rights?}&imgSize={imgSize?}&imgType={imgType?}&imgColorType={imgColorType?}&imgDominantColor={imgDominantColor?}&alt=json"
    },
    "queries": {
        "request": [
            {
                "title": "Google Custom Search - crash  synonyms",
                "totalResults": "5800000",
                "searchTerms": "crash  synonyms",
                "count": 10,
                "startIndex": 1,
                "inputEncoding": "utf8",
                "outputEncoding": "utf8",
                "safe": "off",
                "cx": "003330174904582784281:ycdnjzifiqk"
            }
        ],
        "nextPage": [
            {
                "title": "Google Custom Search - crash  synonyms",
                "totalResults": "5800000",
                "searchTerms": "crash  synonyms",
                "count": 10,
                "startIndex": 11,
                "inputEncoding": "utf8",
                "outputEncoding": "utf8",
                "safe": "off",
                "cx": "003330174904582784281:ycdnjzifiqk"
            }
        ]
    },
    "context": {
        "title": "Kyblit2020DataSE"
    },
    "searchInformation": {
        "searchTime": 0.244219,
        "formattedSearchTime": "0.24",
        "totalResults": "5800000",
        "formattedTotalResults": "5,800,000"
    },
    "items": [
        {
            "kind": "customsearch#result",
            "title": "Crash Synonyms, Crash Antonyms | Thesaurus.com",
            "htmlTitle": "<b>Crash Synonyms</b>, Crash Antonyms | Thesaurus.com",
            "link": "https://www.thesaurus.com/browse/crash",
            "displayLink": "www.thesaurus.com",
            "snippet": "RELATED WORDS AND SYNONYMS FOR CRASH. abend. nounabnormal end \nof task. abort · crash ...",
            "htmlSnippet": "RELATED WORDS AND <b>SYNONYMS</b> FOR <b>CRASH</b>. abend. nounabnormal end <br>\nof task. abort &middot; <b>crash</b>&nbsp;...",
            "cacheId": "_pP_wAeT1uUJ",
            "formattedUrl": "https://www.thesaurus.com/browse/crash",
            "htmlFormattedUrl": "https://www.<b>thesaurus</b>.com/browse/<b>crash</b>",
            "pagemap": {
                "cse_thumbnail": [
                    {
                        "src": "https://encrypted-tbn1.gstatic.com/images?q=tbn:ANd9GcTJxpppdTGPIh5cfR5ejYWhEGQm6eZQG02OxILJQqoiwyGItTKpABzE5qsK",
                        "width": "225",
                        "height": "225"
                    }
                ],
                "metatags": [
                    {
                        "og:image": "https://www.thesaurus.com/assets/thesaurus_social_logo-4b42f0643b92eaf85fc0e4e78aa84a8d.png",
                        "twitter:card": "summary",
                        "fb:app_id": "118269238218175",
                        "og:site_name": "www.thesaurus.com",
                        "twitter:site": "@Dictionarycom",
                        "msvalidate.01": "DF5542D7723770377E9ABFF59AC1DC97",
                        "viewport": "width=device-width, initial-scale=1.0",
                        "og:title": "Synonyms of crash | Thesaurus.com",
                        "fb:admins": "100000304287730,109125464873",
                        "og:description": "Synonyms for crash from Thesaurus.com, the world’s leading online source for synonyms, antonyms, and more."
                    }
                ],
                "cse_image": [
                    {
                        "src": "https://www.thesaurus.com/assets/thesaurus_social_logo-4b42f0643b92eaf85fc0e4e78aa84a8d.png"
                    }
                ]
            }
        },
        {
            "kind": "customsearch#result",
            "title": "Crash Synonyms, Crash Antonyms | Merriam-Webster Thesaurus",
            "htmlTitle": "<b>Crash Synonyms</b>, Crash Antonyms | Merriam-Webster Thesaurus",
            "link": "https://www.merriam-webster.com/thesaurus/crash",
            "displayLink": "www.merriam-webster.com",
            "snippet": "Synonyms & Antonyms of crash · 1 the violent coming together of two bodies into \ndestructive contact the fiery crash of two jumbo jet airplanes in midair · 2 a falling\n ...",
            "htmlSnippet": "<b>Synonyms</b> &amp; Antonyms of <b>crash</b> &middot; 1 the violent coming together of two bodies into <br>\ndestructive contact the fiery <b>crash</b> of two jumbo jet airplanes in midair &middot; 2 a falling<br>\n&nbsp;...",
            "cacheId": "7GqIut3A6c0J",
            "formattedUrl": "https://www.merriam-webster.com/thesaurus/crash",
            "htmlFormattedUrl": "https://www.merriam-webster.com/<b>thesaurus</b>/<b>crash</b>",
            "pagemap": {
                "cse_thumbnail": [
                    {
                        "src": "https://encrypted-tbn1.gstatic.com/images?q=tbn:ANd9GcSKksTSKYwpW8It403nrjw5t1_a8pLO2PI6ImEG7uvFrNfacgiziPZgG-_O",
                        "width": "225",
                        "height": "225"
                    }
                ],
                "metatags": [
                    {
                        "msapplication-tilecolor": "#2b5797",
                        "og:image": "https://merriam-webster.com/assets/mw/static/social-media-share/mw-logo-245x245@1x.png",
                        "twitter:title": "Thesaurus results for CRASH",
                        "twitter:card": "summary",
                        "theme-color": "#ffffff",
                        "twitter:url": "https://www.merriam-webster.com/thesaurus/crash",
                        "og:title": "Thesaurus results for CRASH",
                        "twitter:aria-text": "Share more words for crash on Twitter",
                        "og:aria-text": "Post more words for crash to Facebook",
                        "og:description": "Crash: the violent coming together of two bodies into destructive contact. Synonyms: collision, concussion, crack-up… Antonyms: accomplishment, achievement, success… Find the right word.",
                        "twitter:image": "https://merriam-webster.com/assets/mw/static/social-media-share/mw-logo-245x245@1x.png",
                        "referrer": "unsafe-url",
                        "fb:app_id": "178450008855735",
                        "twitter:site": "@MerriamWebster",
                        "viewport": "width=device-width, initial-scale=1.0",
                        "twitter:description": "Crash: the violent coming together of two bodies into destructive contact. Synonyms: collision, concussion, crack-up… Antonyms: accomplishment, achievement, success… Find the right word.",
                        "og:url": "https://www.merriam-webster.com/thesaurus/crash"
                    }
                ],
                "cse_image": [
                    {
                        "src": "https://merriam-webster.com/assets/mw/static/social-media-share/mw-logo-245x245@1x.png"
                    }
                ]
            }
        },
        {
            "kind": "customsearch#result",
            "title": "Crash synonyms | Best 134 synonyms for crash",
            "htmlTitle": "<b>Crash synonyms</b> | Best 134 synonyms for crash",
            "link": "https://thesaurus.yourdictionary.com/crash",
            "displayLink": "thesaurus.yourdictionary.com",
            "snippet": "The best 134 synonyms for crash, including: accident, collision, clatter, clash, \nbang, wreck, crackup, overturn, upset, break down, plunge and more.",
            "htmlSnippet": "The best 134 <b>synonyms</b> for <b>crash</b>, including: accident, collision, clatter, clash, <br>\nbang, wreck, crackup, overturn, upset, break down, plunge and more.",
            "cacheId": "UEwTc6NvYZUJ",
            "formattedUrl": "https://thesaurus.yourdictionary.com/crash",
            "htmlFormattedUrl": "https://<b>thesaurus</b>.yourdictionary.com/<b>crash</b>",
            "pagemap": {
                "metatags": [
                    {
                        "viewport": "width=device-width, initial-scale=1"
                    }
                ]
            }
        },
        {
            "kind": "customsearch#result",
            "title": "Crashed Synonyms, Crashed Antonyms | Merriam-Webster Thesaurus",
            "htmlTitle": "<b>Crashed Synonyms</b>, Crashed Antonyms | Merriam-Webster Thesaurus",
            "link": "https://www.merriam-webster.com/thesaurus/crashed",
            "displayLink": "www.merriam-webster.com",
            "snippet": "Synonyms & Antonyms of crashed · bored, · bulldozed, · bulled, · elbowed, · \njammed, · jostled, · muscled, · pressed, ...",
            "htmlSnippet": "<b>Synonyms</b> &amp; Antonyms of <b>crashed</b> &middot; bored, &middot; bulldozed, &middot; bulled, &middot; elbowed, &middot; <br>\njammed, &middot; jostled, &middot; muscled, &middot; pressed,&nbsp;...",
            "cacheId": "EGNjhcJWi5MJ",
            "formattedUrl": "https://www.merriam-webster.com/thesaurus/crashed",
            "htmlFormattedUrl": "https://www.merriam-webster.com/<b>thesaurus</b>/<b>crashed</b>",
            "pagemap": {
                "cse_thumbnail": [
                    {
                        "src": "https://encrypted-tbn1.gstatic.com/images?q=tbn:ANd9GcSKksTSKYwpW8It403nrjw5t1_a8pLO2PI6ImEG7uvFrNfacgiziPZgG-_O",
                        "width": "225",
                        "height": "225"
                    }
                ],
                "metatags": [
                    {
                        "msapplication-tilecolor": "#2b5797",
                        "og:image": "https://merriam-webster.com/assets/mw/static/social-media-share/mw-logo-245x245@1x.png",
                        "twitter:title": "Thesaurus results for CRASHED",
                        "twitter:card": "summary",
                        "theme-color": "#ffffff",
                        "twitter:url": "https://www.merriam-webster.com/thesaurus/crashed",
                        "og:title": "Thesaurus results for CRASHED",
                        "twitter:aria-text": "Share more words for crashed on Twitter",
                        "og:aria-text": "Post more words for crashed to Facebook",
                        "og:description": "Crashed: to cause to break with violence and much noise. Synonyms: broke down, shattered, smashed… Antonyms: started (up), arose, ascended… Find the right word.",
                        "twitter:image": "https://merriam-webster.com/assets/mw/static/social-media-share/mw-logo-245x245@1x.png",
                        "referrer": "unsafe-url",
                        "fb:app_id": "178450008855735",
                        "twitter:site": "@MerriamWebster",
                        "viewport": "width=device-width, initial-scale=1.0",
                        "twitter:description": "Crashed: to cause to break with violence and much noise. Synonyms: broke down, shattered, smashed… Antonyms: started (up), arose, ascended… Find the right word.",
                        "og:url": "https://www.merriam-webster.com/thesaurus/crashed"
                    }
                ],
                "cse_image": [
                    {
                        "src": "https://merriam-webster.com/assets/mw/static/social-media-share/mw-logo-245x245@1x.png"
                    }
                ]
            }
        },
        {
            "kind": "customsearch#result",
            "title": "What is another word for crash? | Crash Synonyms - WordHippo ...",
            "htmlTitle": "What is another word for crash? | <b>Crash Synonyms</b> - WordHippo ...",
            "link": "https://www.wordhippo.com/what-is/another-word-for/crash.html",
            "displayLink": "www.wordhippo.com",
            "snippet": "Find 8248 synonyms for crash and other similar words that you can use instead \nbased on 49 separate contexts from our thesaurus.",
            "htmlSnippet": "Find 8248 <b>synonyms</b> for <b>crash</b> and other similar words that you can use instead <br>\nbased on 49 separate contexts from our <b>thesaurus</b>.",
            "cacheId": "qFm0gyY_nn0J",
            "formattedUrl": "https://www.wordhippo.com/what-is/another-word-for/crash.html",
            "htmlFormattedUrl": "https://www.wordhippo.com/what-is/another-word-for/<b>crash</b>.html",
            "pagemap": {
                "metatags": [
                    {
                        "viewport": "width=device-width, initial-scale=1.0"
                    }
                ]
            }
        },
        {
            "kind": "customsearch#result",
            "title": "Crash Synonyms | Collins English Thesaurus",
            "htmlTitle": "<b>Crash Synonyms</b> | Collins English Thesaurus",
            "link": "https://www.collinsdictionary.com/us/dictionary/english-thesaurus/crash",
            "displayLink": "www.collinsdictionary.com",
            "snippet": "Another word for crash: collision, accident, smash, wreck, prang | Collins English \nThesaurus.",
            "htmlSnippet": "Another word for <b>crash</b>: collision, accident, smash, wreck, prang | Collins English <br>\n<b>Thesaurus</b>.",
            "cacheId": "YyMKklFgMOEJ",
            "formattedUrl": "https://www.collinsdictionary.com/us/dictionary/english-thesaurus/crash",
            "htmlFormattedUrl": "https://www.collinsdictionary.com/us/dictionary/english-<b>thesaurus</b>/<b>crash</b>",
            "pagemap": {
                "cse_thumbnail": [
                    {
                        "src": "https://encrypted-tbn1.gstatic.com/images?q=tbn:ANd9GcRZe-ipygcH2xseTVhDiBOGt2-N_GzEKZ5vSaz2cju39ueHlHi9s6P1FYWo",
                        "width": "311",
                        "height": "162"
                    }
                ],
                "metatags": [
                    {
                        "og:image": "https://www.collinsdictionary.com/external/images/social/logo-THESAURUS.png",
                        "msapplication-config": "https://www.collinsdictionary.com/browserconfig.xml",
                        "og:type": "website",
                        "theme-color": "#db0100",
                        "og:title": "Crash Synonyms | Collins English Thesaurus",
                        "apple-mobile-web-app-title": "Collins Dictionaries",
                        "_csrf": "ea2a53bb-ea6c-4179-8d9c-4bc70e83606e",
                        "_csrf_parameter": "_csrf",
                        "title": "Crash Synonyms | Collins English Thesaurus",
                        "og:description": "Another word for crash: collision, accident, smash, wreck, prang | Collins English Thesaurus",
                        "viewport": "width=device-width, initial-scale=1.0, maximum-scale=5.0",
                        "_csrf_header": "X-XSRF-TOKEN",
                        "og:url": "https://www.collinsdictionary.com/dictionary/english-thesaurus/crash"
                    }
                ],
                "cse_image": [
                    {
                        "src": "https://www.collinsdictionary.com/external/images/social/logo-THESAURUS.png"
                    }
                ]
            }
        },
        {
            "kind": "customsearch#result",
            "title": "4 217 Crash synonyms - Other Words for Crash",
            "htmlTitle": "4 217 <b>Crash synonyms</b> - Other Words for Crash",
            "link": "https://www.powerthesaurus.org/crash/synonyms",
            "displayLink": "www.powerthesaurus.org",
            "snippet": "Crash synonyms. Top synonyms for crash (other words for crash) are collapse, \naccident and smash.",
            "htmlSnippet": "<b>Crash synonyms</b>. Top synonyms for crash (other words for crash) are collapse, <br>\naccident and smash.",
            "cacheId": "zz8RcBvP3QgJ",
            "formattedUrl": "https://www.powerthesaurus.org/crash/synonyms",
            "htmlFormattedUrl": "https://www.power<b>thesaurus</b>.org/<b>crash</b>/<b>synonyms</b>",
            "pagemap": {
                "cse_thumbnail": [
                    {
                        "src": "https://encrypted-tbn3.gstatic.com/images?q=tbn:ANd9GcTVx9p8yv8Z4HECv2SAtxCx1RRwCs4TQ3i0VROrtknLF_sYU9IFYej4uRc",
                        "width": "225",
                        "height": "225"
                    }
                ],
                "metatags": [
                    {
                        "application-name": "Power Thesaurus",
                        "msapplication-config": "/browserconfig.xml",
                        "apple-itunes-app": "app-id=967211375",
                        "og:image": "https://www.radyushin.com/images/pt_logo_1200x1200.png",
                        "theme-color": "#168AE9",
                        "og:type": "website",
                        "og:image:alt": "Power Thesaurus",
                        "twitter:card": "summary",
                        "og:site_name": "Power Thesaurus",
                        "author": "Power Thesaurus",
                        "apple-mobile-web-app-title": "Power Thesaurus",
                        "og:title": "4 217 Crash synonyms - Other Words for Crash",
                        "og:description": "Crash synonyms. Top synonyms for crash (other words for crash) are collapse, accident and smash.",
                        "fb:app_id": "424964784740714",
                        "twitter:site": "@PowerThesaurus",
                        "viewport": "width=device-width, initial-scale=1.0, maximum-scale=1.0",
                        "og:locale": "en_US",
                        "og:url": "https://www.powerthesaurus.org/crash/synonyms",
                        "google-play-app": "app-id=org.powerthesaurus.powerthesaurus"
                    }
                ],
                "cse_image": [
                    {
                        "src": "https://www.radyushin.com/images/pt_logo_1200x1200.png"
                    }
                ]
            }
        },
        {
            "kind": "customsearch#result",
            "title": "CAR CRASH (noun) definition and synonyms | Macmillan Dictionary",
            "htmlTitle": "CAR <b>CRASH</b> (noun) definition and <b>synonyms</b> | Macmillan Dictionary",
            "link": "https://www.macmillandictionary.com/us/dictionary/american/car-crash",
            "displayLink": "www.macmillandictionary.com",
            "snippet": "Definition of CAR CRASH (noun): accident in which vehicles hit each other; \nsomething that is completely unsuccessful.",
            "htmlSnippet": "Definition of CAR <b>CRASH</b> (noun): accident in which vehicles hit each other; <br>\nsomething that is completely unsuccessful.",
            "cacheId": "RxaU02_5pAAJ",
            "formattedUrl": "https://www.macmillandictionary.com/us/dictionary/american/car-crash",
            "htmlFormattedUrl": "https://www.macmillandictionary.com/us/dictionary/american/car-<b>crash</b>",
            "pagemap": {
                "cse_thumbnail": [
                    {
                        "src": "https://encrypted-tbn3.gstatic.com/images?q=tbn:ANd9GcQq1XwZHyhsplz2gqTWfOMdrRK_HTPsdInhEZEectSt8unMIf5yPEGbNA",
                        "width": "426",
                        "height": "118"
                    }
                ],
                "metatags": [
                    {
                        "og:image": "/external/images/social/social_macmillan.jpg?version=4.0.27",
                        "og:type": "website",
                        "viewport": "width=device-width, initial-scale=1.0, maximum-scale=10.0, minimum-scale=0.1",
                        "og:title": "CAR CRASH (noun) definition and synonyms | Macmillan Dictionary",
                        "og:url": "https://www.macmillandictionary.com/dictionary/british/car-crash",
                        "og:description": "Definition of CAR CRASH (noun): accident in which vehicles hit each other; something that is completely unsuccessful"
                    }
                ],
                "cse_image": [
                    {
                        "src": "https://www.macmillandictionary.com/external/images/bg-wave.svg?version=4.0.27"
                    }
                ]
            }
        },
        {
            "kind": "customsearch#result",
            "title": "Synonyms and Antonyms for crash | Synonym.com",
            "htmlTitle": "<b>Synonyms</b> and Antonyms for <b>crash</b> | <b>Synonym</b>.com",
            "link": "https://www.synonym.com/synonyms/crash",
            "displayLink": "www.synonym.com",
            "snippet": "Synonym.com is the web's best resource for English synonyms, antonyms, and \ndefinitions.",
            "htmlSnippet": "<b>Synonym</b>.com is the web&#39;s best resource for English <b>synonyms</b>, antonyms, and <br>\ndefinitions.",
            "cacheId": "LEUOG6sNclAJ",
            "formattedUrl": "https://www.synonym.com/synonyms/crash",
            "htmlFormattedUrl": "https://www.<b>synonym</b>.com/<b>synonyms</b>/<b>crash</b>",
            "pagemap": {
                "cse_thumbnail": [
                    {
                        "src": "https://encrypted-tbn2.gstatic.com/images?q=tbn:ANd9GcT2kfLDDnPtioWhkwcA4k79uVoBwZGbjMImaZa6YUkJlQd0xTZGjOwZ2Yc",
                        "width": "228",
                        "height": "221"
                    }
                ],
                "metatags": [
                    {
                        "msapplication-tilecolor": "#FFFFFF",
                        "og:image": "/static/images/icons/synonym/synonym-icon-fullsize.png",
                        "og:type": "article",
                        "twitter:title": "Synonyms and Antonyms for crash",
                        "theme-color": "#d8f1fb",
                        "og:title": "Synonyms and Antonyms for crash",
                        "apple-mobile-web-app-title": "Synonym",
                        "msapplication-tileimage": "/static/images/icons/synonym/favicon144.png",
                        "og:description": "crash | definition: a loud resonant repeating noise | synonyms: clangor, clangoring, clank, clangour, clash, clang, noise| antonyms: unify, respect, keep, begin, promote",
                        "apple-mobile-web-app-status-bar-style": "default",
                        "viewport": "width=device-width",
                        "twitter:description": "crash | definition: a loud resonant repeating noise | synonyms: clangor, clangoring, clank, clangour, clash, clang, noise| antonyms: unify, respect, keep, begin, promote",
                        "apple-mobile-web-app-capable": "no",
                        "og:url": "https://www.synonym.com/synonyms/crash"
                    }
                ],
                "cse_image": [
                    {
                        "src": "https://www.synonym.com/static/images/wordtigo-background.svg"
                    }
                ]
            }
        },
        {
            "kind": "customsearch#result",
            "title": "Stock market crash synonyms, Stock market crash antonyms",
            "htmlTitle": "Stock market <b>crash synonyms</b>, Stock market crash antonyms",
            "link": "https://www.freethesaurus.com/Stock+market+crash",
            "displayLink": "www.freethesaurus.com",
            "snippet": "Synonyms for crash · nouncollision · nounsmash · nouncollapse · verbfall · verb\nplunge · verbsmash · verbcollapse · adjintensive ...",
            "htmlSnippet": "<b>Synonyms</b> for <b>crash</b> &middot; nouncollision &middot; nounsmash &middot; nouncollapse &middot; verbfall &middot; verb<br>\nplunge &middot; verbsmash &middot; verbcollapse &middot; adjintensive&nbsp;...",
            "cacheId": "6SRjXTkfjqoJ",
            "formattedUrl": "https://www.freethesaurus.com/Stock+market+crash",
            "htmlFormattedUrl": "https://www.free<b>thesaurus</b>.com/Stock+market+<b>crash</b>",
            "pagemap": {
                "cse_thumbnail": [
                    {
                        "src": "https://encrypted-tbn0.gstatic.com/images?q=tbn:ANd9GcRYdkuI0uE9gcqSkj_ayX2U9j3w9PMpjL9KOS4mDt6h2s29lFotin4do3Q",
                        "width": "225",
                        "height": "225"
                    }
                ],
                "metatags": [
                    {
                        "og:image": "http://img.tfd.com/TFDlogo1200x1200.png",
                        "msapplication-packagefamilyname": "Farlex.581429F59E1D8_wyegy4e46y996",
                        "apple-itunes-app": "app-id=379450383, app-argument=thefreedictionary://search/Stock+market+crash?",
                        "og:type": "article",
                        "og:image:width": "1200",
                        "og:site_name": "TheFreeDictionary.com",
                        "viewport": "width=device-width, initial-scale=1.0",
                        "og:title": "Stock market crash",
                        "og:image:height": "1200",
                        "og:url": "https://www.freethesaurus.com/Stock+market+crash",
                        "og:description": "Stock market crash synonyms, antonyms, and related words in the Free Thesaurus",
                        "msapplication-id": "Farlex.581429F59E1D8"
                    }
                ],
                "cse_image": [
                    {
                        "src": "http://img.tfd.com/TFDlogo1200x1200.png"
                    }
                ]
            }
        }
    ]
}