{
    "kind": "customsearch#search",
    "url": {
        "type": "application/json",
        "template": "https://www.googleapis.com/customsearch/v1?q={searchTerms}&num={count?}&start={startIndex?}&lr={language?}&safe={safe?}&cx={cx?}&sort={sort?}&filter={filter?}&gl={gl?}&cr={cr?}&googlehost={googleHost?}&c2coff={disableCnTwTranslation?}&hq={hq?}&hl={hl?}&siteSearch={siteSearch?}&siteSearchFilter={siteSearchFilter?}&exactTerms={exactTerms?}&excludeTerms={excludeTerms?}&linkSite={linkSite?}&orTerms={orTerms?}&relatedSite={relatedSite?}&dateRestrict={dateRestrict?}&lowRange={lowRange?}&highRange={highRange?}&searchType={searchType}&fileType={fileType?}&rights={rights?}&imgSize={imgSize?}&imgType={imgType?}&imgColorType={imgColorType?}&imgDominantColor={imgDominantColor?}&alt=json"
    },
    "queries": {
        "request": [
            {
                "title": "Google Custom Search - face  synonyms",
                "totalResults": "240000000",
                "searchTerms": "face  synonyms",
                "count": 10,
                "startIndex": 1,
                "inputEncoding": "utf8",
                "outputEncoding": "utf8",
                "safe": "off",
                "cx": "003330174904582784281:ycdnjzifiqk"
            }
        ],
        "nextPage": [
            {
                "title": "Google Custom Search - face  synonyms",
                "totalResults": "240000000",
                "searchTerms": "face  synonyms",
                "count": 10,
                "startIndex": 11,
                "inputEncoding": "utf8",
                "outputEncoding": "utf8",
                "safe": "off",
                "cx": "003330174904582784281:ycdnjzifiqk"
            }
        ]
    },
    "context": {
        "title": "Kyblit2020DataSE"
    },
    "searchInformation": {
        "searchTime": 0.243057,
        "formattedSearchTime": "0.24",
        "totalResults": "240000000",
        "formattedTotalResults": "240,000,000"
    },
    "items": [
        {
            "kind": "customsearch#result",
            "title": "Face Synonyms, Face Antonyms | Thesaurus.com",
            "htmlTitle": "<b>Face Synonyms</b>, Face Antonyms | Thesaurus.com",
            "link": "https://www.thesaurus.com/browse/face",
            "displayLink": "www.thesaurus.com",
            "snippet": "RELATED WORDS AND SYNONYMS FOR FACE. accost. verbapproach for \nconversation or solicitation. address · annoy ...",
            "htmlSnippet": "RELATED WORDS AND <b>SYNONYMS</b> FOR <b>FACE</b>. accost. verbapproach for <br>\nconversation or solicitation. address &middot; annoy&nbsp;...",
            "cacheId": "djQwvnL3Xg8J",
            "formattedUrl": "https://www.thesaurus.com/browse/face",
            "htmlFormattedUrl": "https://www.<b>thesaurus</b>.com/browse/<b>face</b>",
            "pagemap": {
                "cse_thumbnail": [
                    {
                        "src": "https://encrypted-tbn1.gstatic.com/images?q=tbn:ANd9GcTJxpppdTGPIh5cfR5ejYWhEGQm6eZQG02OxILJQqoiwyGItTKpABzE5qsK",
                        "width": "225",
                        "height": "225"
                    }
                ],
                "metatags": [
                    {
                        "og:image": "https://www.thesaurus.com/assets/thesaurus_social_logo-4b42f0643b92eaf85fc0e4e78aa84a8d.png",
                        "twitter:card": "summary",
                        "fb:app_id": "118269238218175",
                        "og:site_name": "www.thesaurus.com",
                        "twitter:site": "@Dictionarycom",
                        "msvalidate.01": "DF5542D7723770377E9ABFF59AC1DC97",
                        "viewport": "width=device-width, initial-scale=1.0",
                        "og:title": "Synonyms of face | Thesaurus.com",
                        "fb:admins": "100000304287730,109125464873",
                        "og:description": "Synonyms for face from Thesaurus.com, the world’s leading online source for synonyms, antonyms, and more."
                    }
                ],
                "cse_image": [
                    {
                        "src": "https://www.thesaurus.com/assets/thesaurus_social_logo-4b42f0643b92eaf85fc0e4e78aa84a8d.png"
                    }
                ]
            }
        },
        {
            "kind": "customsearch#result",
            "title": "Face Synonyms, Face Antonyms | Merriam-Webster Thesaurus",
            "htmlTitle": "<b>Face Synonyms</b>, Face Antonyms | Merriam-Webster Thesaurus",
            "link": "https://www.merriam-webster.com/thesaurus/face",
            "displayLink": "www.merriam-webster.com",
            "snippet": "Synonyms & Antonyms of face · 1 the front part of the head · 2 a forward part or \nsurface · 3 a twisting of the facial features in disgust or disapproval · 4 an outer \npart or ...",
            "htmlSnippet": "<b>Synonyms</b> &amp; Antonyms of <b>face</b> &middot; 1 the front part of the head &middot; 2 a forward part or <br>\nsurface &middot; 3 a twisting of the facial features in disgust or disapproval &middot; 4 an outer <br>\npart or&nbsp;...",
            "cacheId": "EyA4pSTJ5cUJ",
            "formattedUrl": "https://www.merriam-webster.com/thesaurus/face",
            "htmlFormattedUrl": "https://www.merriam-webster.com/<b>thesaurus</b>/<b>face</b>",
            "pagemap": {
                "cse_thumbnail": [
                    {
                        "src": "https://encrypted-tbn1.gstatic.com/images?q=tbn:ANd9GcSKksTSKYwpW8It403nrjw5t1_a8pLO2PI6ImEG7uvFrNfacgiziPZgG-_O",
                        "width": "225",
                        "height": "225"
                    }
                ],
                "metatags": [
                    {
                        "msapplication-tilecolor": "#2b5797",
                        "og:image": "https://merriam-webster.com/assets/mw/static/social-media-share/mw-logo-245x245@1x.png",
                        "twitter:title": "Thesaurus results for FACE",
                        "twitter:card": "summary",
                        "theme-color": "#ffffff",
                        "twitter:url": "https://www.merriam-webster.com/thesaurus/face",
                        "og:title": "Thesaurus results for FACE",
                        "twitter:aria-text": "Share more words for face on Twitter",
                        "og:aria-text": "Post more words for face to Facebook",
                        "og:description": "Face: to stand or sit with the face or front toward. Synonyms: front, look (toward), point (toward)… Antonyms: dodge, duck, funk… Find the right word.",
                        "twitter:image": "https://merriam-webster.com/assets/mw/static/social-media-share/mw-logo-245x245@1x.png",
                        "referrer": "unsafe-url",
                        "fb:app_id": "178450008855735",
                        "twitter:site": "@MerriamWebster",
                        "viewport": "width=device-width, initial-scale=1.0",
                        "twitter:description": "Face: to stand or sit with the face or front toward. Synonyms: front, look (toward), point (toward)… Antonyms: dodge, duck, funk… Find the right word.",
                        "og:url": "https://www.merriam-webster.com/thesaurus/face"
                    }
                ],
                "cse_image": [
                    {
                        "src": "https://merriam-webster.com/assets/mw/static/social-media-share/mw-logo-245x245@1x.png"
                    }
                ]
            }
        },
        {
            "kind": "customsearch#result",
            "title": "Faces Synonyms, Faces Antonyms | Thesaurus.com",
            "htmlTitle": "<b>Faces Synonyms</b>, Faces Antonyms | Thesaurus.com",
            "link": "https://www.thesaurus.com/browse/faces",
            "displayLink": "www.thesaurus.com",
            "snippet": "They were all facing him, and their faces were alive with interest; yet they made \nno hostile move. But after all, I dare say there will be no need but to shew your ...",
            "htmlSnippet": "They were all <b>facing</b> him, and their <b>faces</b> were alive with interest; yet they made <br>\nno hostile move. But after all, I dare say there will be no need but to shew your&nbsp;...",
            "cacheId": "P62RbVu-r5EJ",
            "formattedUrl": "https://www.thesaurus.com/browse/faces",
            "htmlFormattedUrl": "https://www.<b>thesaurus</b>.com/browse/<b>faces</b>",
            "pagemap": {
                "cse_thumbnail": [
                    {
                        "src": "https://encrypted-tbn1.gstatic.com/images?q=tbn:ANd9GcTJxpppdTGPIh5cfR5ejYWhEGQm6eZQG02OxILJQqoiwyGItTKpABzE5qsK",
                        "width": "225",
                        "height": "225"
                    }
                ],
                "metatags": [
                    {
                        "og:image": "https://www.thesaurus.com/assets/thesaurus_social_logo-4b42f0643b92eaf85fc0e4e78aa84a8d.png",
                        "twitter:card": "summary",
                        "fb:app_id": "118269238218175",
                        "og:site_name": "www.thesaurus.com",
                        "twitter:site": "@Dictionarycom",
                        "msvalidate.01": "DF5542D7723770377E9ABFF59AC1DC97",
                        "viewport": "width=device-width, initial-scale=1.0",
                        "og:title": "Synonyms of faces | Thesaurus.com",
                        "fb:admins": "100000304287730,109125464873",
                        "og:description": "Synonyms for faces from Thesaurus.com, the world’s leading online source for synonyms, antonyms, and more."
                    }
                ],
                "cse_image": [
                    {
                        "src": "https://www.thesaurus.com/assets/thesaurus_social_logo-4b42f0643b92eaf85fc0e4e78aa84a8d.png"
                    }
                ]
            }
        },
        {
            "kind": "customsearch#result",
            "title": "Faces Synonyms, Faces Antonyms | Merriam-Webster Thesaurus",
            "htmlTitle": "<b>Faces Synonyms</b>, Faces Antonyms | Merriam-Webster Thesaurus",
            "link": "https://www.merriam-webster.com/thesaurus/faces",
            "displayLink": "www.merriam-webster.com",
            "snippet": "Synonyms & Antonyms of faces · frowns, · grimaces, · lowers · (also lours), · \nmoues, · mouths, · mows, · mugs, ...",
            "htmlSnippet": "<b>Synonyms</b> &amp; Antonyms of <b>faces</b> &middot; frowns, &middot; grimaces, &middot; lowers &middot; (also lours), &middot; <br>\nmoues, &middot; mouths, &middot; mows, &middot; mugs,&nbsp;...",
            "cacheId": "QfIR8mf6-9sJ",
            "formattedUrl": "https://www.merriam-webster.com/thesaurus/faces",
            "htmlFormattedUrl": "https://www.merriam-webster.com/<b>thesaurus</b>/<b>faces</b>",
            "pagemap": {
                "cse_thumbnail": [
                    {
                        "src": "https://encrypted-tbn1.gstatic.com/images?q=tbn:ANd9GcSKksTSKYwpW8It403nrjw5t1_a8pLO2PI6ImEG7uvFrNfacgiziPZgG-_O",
                        "width": "225",
                        "height": "225"
                    }
                ],
                "metatags": [
                    {
                        "msapplication-tilecolor": "#2b5797",
                        "og:image": "https://merriam-webster.com/assets/mw/static/social-media-share/mw-logo-245x245@1x.png",
                        "twitter:title": "Thesaurus results for FACES",
                        "twitter:card": "summary",
                        "theme-color": "#ffffff",
                        "twitter:url": "https://www.merriam-webster.com/thesaurus/faces",
                        "og:title": "Thesaurus results for FACES",
                        "twitter:aria-text": "Share more words for faces on Twitter",
                        "og:aria-text": "Post more words for faces to Facebook",
                        "og:description": "Faces: to stand or sit with the face or front toward. Synonyms: fronts, looks (toward), points (toward)… Antonyms: dodges, ducks, funks… Find the right word.",
                        "twitter:image": "https://merriam-webster.com/assets/mw/static/social-media-share/mw-logo-245x245@1x.png",
                        "referrer": "unsafe-url",
                        "fb:app_id": "178450008855735",
                        "twitter:site": "@MerriamWebster",
                        "viewport": "width=device-width, initial-scale=1.0",
                        "twitter:description": "Faces: to stand or sit with the face or front toward. Synonyms: fronts, looks (toward), points (toward)… Antonyms: dodges, ducks, funks… Find the right word.",
                        "og:url": "https://www.merriam-webster.com/thesaurus/faces"
                    }
                ],
                "cse_image": [
                    {
                        "src": "https://merriam-webster.com/assets/mw/static/social-media-share/mw-logo-245x245@1x.png"
                    }
                ]
            }
        },
        {
            "kind": "customsearch#result",
            "title": "What is another word for face? | Face Synonyms - WordHippo ...",
            "htmlTitle": "What is another word for face? | <b>Face Synonyms</b> - WordHippo ...",
            "link": "https://www.wordhippo.com/what-is/another-word-for/face.html",
            "displayLink": "www.wordhippo.com",
            "snippet": "Find 6624 synonyms for face and other similar words that you can use instead \nbased on 47 separate contexts from our thesaurus.",
            "htmlSnippet": "Find 6624 <b>synonyms</b> for <b>face</b> and other similar words that you can use instead <br>\nbased on 47 separate contexts from our <b>thesaurus</b>.",
            "cacheId": "iDs0TXBwh20J",
            "formattedUrl": "https://www.wordhippo.com/what-is/another-word-for/face.html",
            "htmlFormattedUrl": "https://www.wordhippo.com/what-is/another-word-for/<b>face</b>.html",
            "pagemap": {
                "metatags": [
                    {
                        "viewport": "width=device-width, initial-scale=1.0"
                    }
                ]
            }
        },
        {
            "kind": "customsearch#result",
            "title": "Face synonyms | Best 223 synonyms for face",
            "htmlTitle": "<b>Face synonyms</b> | Best 223 synonyms for face",
            "link": "https://thesaurus.yourdictionary.com/face",
            "displayLink": "thesaurus.yourdictionary.com",
            "snippet": "The best 223 synonyms for face, including: countenance, impertinence, features, \nphysiognomy, visage, avoid, appearance, lineaments, silhouette, profile, front ...",
            "htmlSnippet": "The best 223 <b>synonyms</b> for <b>face</b>, including: countenance, impertinence, features, <br>\nphysiognomy, visage, avoid, appearance, lineaments, silhouette, profile, front&nbsp;...",
            "cacheId": "EQQW00re_pgJ",
            "formattedUrl": "https://thesaurus.yourdictionary.com/face",
            "htmlFormattedUrl": "https://<b>thesaurus</b>.yourdictionary.com/<b>face</b>",
            "pagemap": {
                "metatags": [
                    {
                        "viewport": "width=device-width, initial-scale=1"
                    }
                ]
            }
        },
        {
            "kind": "customsearch#result",
            "title": "FACE (verb) definition and synonyms | Macmillan Dictionary",
            "htmlTitle": "<b>FACE</b> (verb) definition and <b>synonyms</b> | Macmillan Dictionary",
            "link": "https://www.macmillandictionary.com/us/dictionary/american/face_2",
            "displayLink": "www.macmillandictionary.com",
            "snippet": "Definition of FACE (verb): be opposite someone with your front towards them; \ndeal with problem; accept bad situation exists; talk to someone although ...",
            "htmlSnippet": "Definition of <b>FACE</b> (verb): be opposite someone with your front towards them; <br>\ndeal with problem; accept bad situation exists; talk to someone although ...",
            "cacheId": "LiGNFRetCagJ",
            "formattedUrl": "https://www.macmillandictionary.com/us/dictionary/american/face_2",
            "htmlFormattedUrl": "https://www.macmillandictionary.com/us/dictionary/american/<b>face</b>_2",
            "pagemap": {
                "cse_thumbnail": [
                    {
                        "src": "https://encrypted-tbn3.gstatic.com/images?q=tbn:ANd9GcQq1XwZHyhsplz2gqTWfOMdrRK_HTPsdInhEZEectSt8unMIf5yPEGbNA",
                        "width": "426",
                        "height": "118"
                    }
                ],
                "metatags": [
                    {
                        "og:image": "/external/images/social/social_macmillan.jpg?version=4.0.27",
                        "og:type": "website",
                        "viewport": "width=device-width, initial-scale=1.0, maximum-scale=10.0, minimum-scale=0.1",
                        "og:title": "FACE (verb) definition and synonyms | Macmillan Dictionary",
                        "og:url": "https://www.macmillandictionary.com/dictionary/british/face_2",
                        "og:description": "Definition of FACE (verb): be opposite someone with your front towards them; deal with problem; accept bad situation exists; talk to someone although ..."
                    }
                ],
                "cse_image": [
                    {
                        "src": "https://www.macmillandictionary.com/external/images/bg-wave.svg?version=4.0.27"
                    }
                ]
            }
        },
        {
            "kind": "customsearch#result",
            "title": "Synonyms and Antonyms for face | Synonym.com",
            "htmlTitle": "<b>Synonyms</b> and Antonyms for <b>face</b> | <b>Synonym</b>.com",
            "link": "https://www.synonym.com/synonyms/face",
            "displayLink": "www.synonym.com",
            "snippet": "Synonym.com is the web's best resource for English synonyms, antonyms, and \ndefinitions.",
            "htmlSnippet": "<b>Synonym</b>.com is the web&#39;s best resource for English <b>synonyms</b>, antonyms, and <br>\ndefinitions.",
            "cacheId": "nXR_RNQ2aoQJ",
            "formattedUrl": "https://www.synonym.com/synonyms/face",
            "htmlFormattedUrl": "https://www.<b>synonym</b>.com/<b>synonyms</b>/<b>face</b>",
            "pagemap": {
                "cse_thumbnail": [
                    {
                        "src": "https://encrypted-tbn2.gstatic.com/images?q=tbn:ANd9GcT2kfLDDnPtioWhkwcA4k79uVoBwZGbjMImaZa6YUkJlQd0xTZGjOwZ2Yc",
                        "width": "228",
                        "height": "221"
                    }
                ],
                "metatags": [
                    {
                        "msapplication-tilecolor": "#FFFFFF",
                        "og:image": "/static/images/icons/synonym/synonym-icon-fullsize.png",
                        "og:type": "article",
                        "twitter:title": "Synonyms and Antonyms for face",
                        "theme-color": "#d8f1fb",
                        "og:title": "Synonyms and Antonyms for face",
                        "apple-mobile-web-app-title": "Synonym",
                        "msapplication-tileimage": "/static/images/icons/synonym/favicon144.png",
                        "og:description": "face | definition: the front of the human head from the forehead to the chin and ear to ear | synonyms: phiz, man, seventh cranial nerve, mentum, human face, supercilium, nose, forehead, facial vein, visage, cheek, jowl, lineament, eyebrow, whiskers, facial, countenance, smiler, external body part, human being, optic, mouth, chin, jaw, nervus facialis, kisser, homo, brow, facial muscle, human, eye, caput, facial nerve, vena facialis, feature, face fungus, olfactory organ, mug, physiognomy, head, beard, oculus| antonyms: natural depression, follow, tail, reverse, foot",
                        "apple-mobile-web-app-status-bar-style": "default",
                        "viewport": "width=device-width",
                        "twitter:description": "face | definition: the front of the human head from the forehead to the chin and ear to ear | synonyms: phiz, man, seventh cranial nerve, mentum, human face, supercilium, nose, forehead, facial vein, visage, cheek, jowl, lineament, eyebrow, whiskers, facial, countenance, smiler, external body part, human being, optic, mouth, chin, jaw, nervus facialis, kisser, homo, brow, facial muscle, human, eye, caput, facial nerve, vena facialis, feature, face fungus, olfactory organ, mug, physiognomy, head, beard, oculus| antonyms: natural depression, follow, tail, reverse, foot",
                        "apple-mobile-web-app-capable": "no",
                        "og:url": "https://www.synonym.com/synonyms/face"
                    }
                ],
                "cse_image": [
                    {
                        "src": "https://www.synonym.com/static/images/wordtigo-background.svg"
                    }
                ]
            }
        },
        {
            "kind": "customsearch#result",
            "title": "Face | Synonyms of Face by Lexico",
            "htmlTitle": "<b>Face</b> | <b>Synonyms</b> of <b>Face</b> by Lexico",
            "link": "https://www.lexico.com/synonym/face",
            "displayLink": "www.lexico.com",
            "snippet": "noun · side, aspect, flank, vertical, surface, plane, facet, wall, elevation · front, \nfrontage, facade · slope.",
            "htmlSnippet": "noun &middot; side, aspect, flank, vertical, surface, plane, facet, wall, elevation &middot; front, <br>\nfrontage, facade &middot; slope.",
            "cacheId": "C1dCZUzVuKsJ",
            "formattedUrl": "https://www.lexico.com/synonym/face",
            "htmlFormattedUrl": "https://www.lexico.com/<b>synonym</b>/<b>face</b>",
            "pagemap": {
                "cse_thumbnail": [
                    {
                        "src": "https://encrypted-tbn3.gstatic.com/images?q=tbn:ANd9GcT-fHqiHsELFzBLFkvhF3MUNoGyDc02pwOeICq9JD-vhUo5TV_0a-_rYOwh",
                        "width": "291",
                        "height": "173"
                    }
                ],
                "metatags": [
                    {
                        "msapplication-tilecolor": "#50b46c",
                        "og:image": "https://www.lexico.com/lexico-logo.png",
                        "twitter:card": "summary_large_image",
                        "twitter:title": "Face | Synonyms of Face by Lexico",
                        "og:type": "website",
                        "theme-color": "#50b46c",
                        "og:site_name": "Lexico Dictionaries | English",
                        "og:title": "Face | Synonyms of Face by Lexico",
                        "msapplication-tileimage": "/mstile-144x144.png",
                        "csrf-param": "authenticity_token",
                        "og:description": "What is the definition of face? What is the meaning of face? How do you use face in a sentence? What are synonyms for face?",
                        "twitter:image": "https://www.lexico.com/lexico-logo.png",
                        "viewport": "width=device-width, initial-scale=1, shrink-to-fit=no",
                        "twitter:description": "What is the definition of face? What is the meaning of face? How do you use face in a sentence? What are synonyms for face?",
                        "csrf-token": "1pErtwk3zZBt2PSVpwQKlBANkRKVQL4wyMVVudych63Xk+ks8RemBfTA25jznYU3yx3H5Rxnx1V+LiaLIVpQaw==",
                        "og:url": "https://www.lexico.com/synonym/face"
                    }
                ],
                "cse_image": [
                    {
                        "src": "https://www.lexico.com/lexico-logo.png"
                    }
                ]
            }
        },
        {
            "kind": "customsearch#result",
            "title": "7 858 Face synonyms - Other Words for Face",
            "htmlTitle": "7 858 <b>Face synonyms</b> - Other Words for Face",
            "link": "https://www.powerthesaurus.org/face/synonyms",
            "displayLink": "www.powerthesaurus.org",
            "snippet": "Face synonyms. Top synonyms for face (other words for face) are look, facing \nand confront.",
            "htmlSnippet": "<b>Face synonyms</b>. Top synonyms for face (other words for face) are look, facing <br>\nand confront.",
            "cacheId": "WMpPizu17tsJ",
            "formattedUrl": "https://www.powerthesaurus.org/face/synonyms",
            "htmlFormattedUrl": "https://www.power<b>thesaurus</b>.org/<b>face</b>/<b>synonyms</b>",
            "pagemap": {
                "cse_thumbnail": [
                    {
                        "src": "https://encrypted-tbn3.gstatic.com/images?q=tbn:ANd9GcTVx9p8yv8Z4HECv2SAtxCx1RRwCs4TQ3i0VROrtknLF_sYU9IFYej4uRc",
                        "width": "225",
                        "height": "225"
                    }
                ],
                "metatags": [
                    {
                        "application-name": "Power Thesaurus",
                        "msapplication-config": "/browserconfig.xml",
                        "apple-itunes-app": "app-id=967211375",
                        "og:image": "https://www.radyushin.com/images/pt_logo_1200x1200.png",
                        "theme-color": "#168AE9",
                        "og:type": "website",
                        "og:image:alt": "Power Thesaurus",
                        "twitter:card": "summary",
                        "og:site_name": "Power Thesaurus",
                        "author": "Power Thesaurus",
                        "apple-mobile-web-app-title": "Power Thesaurus",
                        "og:title": "7 858 Face synonyms - Other Words for Face",
                        "og:description": "Face synonyms. Top synonyms for face (other words for face) are look, facing and confront.",
                        "fb:app_id": "424964784740714",
                        "twitter:site": "@PowerThesaurus",
                        "viewport": "width=device-width, initial-scale=1.0, maximum-scale=1.0",
                        "og:locale": "en_US",
                        "og:url": "https://www.powerthesaurus.org/face/synonyms",
                        "google-play-app": "app-id=org.powerthesaurus.powerthesaurus"
                    }
                ],
                "cse_image": [
                    {
                        "src": "https://www.radyushin.com/images/pt_logo_1200x1200.png"
                    }
                ]
            }
        }
    ]
}