{
    "kind": "customsearch#search",
    "url": {
        "type": "application/json",
        "template": "https://www.googleapis.com/customsearch/v1?q={searchTerms}&num={count?}&start={startIndex?}&lr={language?}&safe={safe?}&cx={cx?}&sort={sort?}&filter={filter?}&gl={gl?}&cr={cr?}&googlehost={googleHost?}&c2coff={disableCnTwTranslation?}&hq={hq?}&hl={hl?}&siteSearch={siteSearch?}&siteSearchFilter={siteSearchFilter?}&exactTerms={exactTerms?}&excludeTerms={excludeTerms?}&linkSite={linkSite?}&orTerms={orTerms?}&relatedSite={relatedSite?}&dateRestrict={dateRestrict?}&lowRange={lowRange?}&highRange={highRange?}&searchType={searchType}&fileType={fileType?}&rights={rights?}&imgSize={imgSize?}&imgType={imgType?}&imgColorType={imgColorType?}&imgDominantColor={imgDominantColor?}&alt=json"
    },
    "queries": {
        "request": [
            {
                "title": "Google Custom Search - limousine  synonyms",
                "totalResults": "1270000",
                "searchTerms": "limousine  synonyms",
                "count": 10,
                "startIndex": 1,
                "inputEncoding": "utf8",
                "outputEncoding": "utf8",
                "safe": "off",
                "cx": "003330174904582784281:ycdnjzifiqk"
            }
        ],
        "nextPage": [
            {
                "title": "Google Custom Search - limousine  synonyms",
                "totalResults": "1270000",
                "searchTerms": "limousine  synonyms",
                "count": 10,
                "startIndex": 11,
                "inputEncoding": "utf8",
                "outputEncoding": "utf8",
                "safe": "off",
                "cx": "003330174904582784281:ycdnjzifiqk"
            }
        ]
    },
    "context": {
        "title": "Kyblit2020DataSE"
    },
    "searchInformation": {
        "searchTime": 0.239103,
        "formattedSearchTime": "0.24",
        "totalResults": "1270000",
        "formattedTotalResults": "1,270,000"
    },
    "items": [
        {
            "kind": "customsearch#result",
            "title": "Limousine Synonyms, Limousine Antonyms | Thesaurus.com",
            "htmlTitle": "<b>Limousine Synonyms</b>, Limousine Antonyms | Thesaurus.com",
            "link": "https://www.thesaurus.com/browse/limousine",
            "displayLink": "www.thesaurus.com",
            "snippet": "RELATED WORDS AND SYNONYMS FOR LIMOUSINE. automobile. nounland \nvehicle; car. auto · bucket of ...",
            "htmlSnippet": "RELATED WORDS AND <b>SYNONYMS</b> FOR <b>LIMOUSINE</b>. automobile. nounland <br>\nvehicle; car. auto &middot; bucket of&nbsp;...",
            "cacheId": "6YjGvGJ9PAAJ",
            "formattedUrl": "https://www.thesaurus.com/browse/limousine",
            "htmlFormattedUrl": "https://www.thesaurus.com/browse/<b>limousine</b>",
            "pagemap": {
                "cse_thumbnail": [
                    {
                        "src": "https://encrypted-tbn1.gstatic.com/images?q=tbn:ANd9GcTJxpppdTGPIh5cfR5ejYWhEGQm6eZQG02OxILJQqoiwyGItTKpABzE5qsK",
                        "width": "225",
                        "height": "225"
                    }
                ],
                "metatags": [
                    {
                        "og:image": "https://www.thesaurus.com/assets/thesaurus_social_logo-4b42f0643b92eaf85fc0e4e78aa84a8d.png",
                        "twitter:card": "summary",
                        "fb:app_id": "118269238218175",
                        "og:site_name": "www.thesaurus.com",
                        "twitter:site": "@Dictionarycom",
                        "msvalidate.01": "DF5542D7723770377E9ABFF59AC1DC97",
                        "viewport": "width=device-width, initial-scale=1.0",
                        "og:title": "Synonyms of limousine | Thesaurus.com",
                        "fb:admins": "100000304287730,109125464873",
                        "og:description": "Synonyms for limousine from Thesaurus.com, the world’s leading online source for synonyms, antonyms, and more."
                    }
                ],
                "cse_image": [
                    {
                        "src": "https://www.thesaurus.com/assets/thesaurus_social_logo-4b42f0643b92eaf85fc0e4e78aa84a8d.png"
                    }
                ]
            }
        },
        {
            "kind": "customsearch#result",
            "title": "119 Limousine synonyms - Other Words for Limousine",
            "htmlTitle": "119 <b>Limousine synonyms</b> - Other Words for Limousine",
            "link": "https://www.powerthesaurus.org/limousine/synonyms",
            "displayLink": "www.powerthesaurus.org",
            "snippet": "Limousine synonyms. Top synonyms for limousine (other words for limousine) \nare limo, town car and automobile.",
            "htmlSnippet": "<b>Limousine synonyms</b>. Top synonyms for limousine (other words for limousine) <br>\nare limo, town car and automobile.",
            "cacheId": "uKEvK9eh41sJ",
            "formattedUrl": "https://www.powerthesaurus.org/limousine/synonyms",
            "htmlFormattedUrl": "https://www.powerthesaurus.org/<b>limousine</b>/<b>synonyms</b>",
            "pagemap": {
                "cse_thumbnail": [
                    {
                        "src": "https://encrypted-tbn3.gstatic.com/images?q=tbn:ANd9GcTVx9p8yv8Z4HECv2SAtxCx1RRwCs4TQ3i0VROrtknLF_sYU9IFYej4uRc",
                        "width": "225",
                        "height": "225"
                    }
                ],
                "metatags": [
                    {
                        "application-name": "Power Thesaurus",
                        "msapplication-config": "/browserconfig.xml",
                        "apple-itunes-app": "app-id=967211375",
                        "og:image": "https://www.radyushin.com/images/pt_logo_1200x1200.png",
                        "theme-color": "#168AE9",
                        "og:type": "website",
                        "og:image:alt": "Power Thesaurus",
                        "twitter:card": "summary",
                        "og:site_name": "Power Thesaurus",
                        "author": "Power Thesaurus",
                        "apple-mobile-web-app-title": "Power Thesaurus",
                        "og:title": "119 Limousine synonyms - Other Words for Limousine",
                        "og:description": "Limousine synonyms. Top synonyms for limousine (other words for limousine) are limo, town car and automobile.",
                        "fb:app_id": "424964784740714",
                        "twitter:site": "@PowerThesaurus",
                        "viewport": "width=device-width, initial-scale=1.0, maximum-scale=1.0",
                        "og:locale": "en_US",
                        "og:url": "https://www.powerthesaurus.org/limousine/synonyms",
                        "google-play-app": "app-id=org.powerthesaurus.powerthesaurus"
                    }
                ],
                "cse_image": [
                    {
                        "src": "https://www.radyushin.com/images/pt_logo_1200x1200.png"
                    }
                ]
            }
        },
        {
            "kind": "customsearch#result",
            "title": "Limousine Synonyms | Merriam-Webster Thesaurus",
            "htmlTitle": "<b>Limousine Synonyms</b> | Merriam-Webster Thesaurus",
            "link": "https://www.merriam-webster.com/thesaurus/limousine",
            "displayLink": "www.merriam-webster.com",
            "snippet": "54 synonyms and near synonyms of limousine from the Merriam-Webster \nThesaurus. Find another word for limousine.",
            "htmlSnippet": "54 <b>synonyms</b> and near <b>synonyms</b> of <b>limousine</b> from the Merriam-Webster <br>\nThesaurus. Find another word for <b>limousine</b>.",
            "cacheId": "2uyRsI2LITMJ",
            "formattedUrl": "https://www.merriam-webster.com/thesaurus/limousine",
            "htmlFormattedUrl": "https://www.merriam-webster.com/thesaurus/<b>limousine</b>",
            "pagemap": {
                "cse_thumbnail": [
                    {
                        "src": "https://encrypted-tbn1.gstatic.com/images?q=tbn:ANd9GcSKksTSKYwpW8It403nrjw5t1_a8pLO2PI6ImEG7uvFrNfacgiziPZgG-_O",
                        "width": "225",
                        "height": "225"
                    }
                ],
                "metatags": [
                    {
                        "msapplication-tilecolor": "#2b5797",
                        "og:image": "https://merriam-webster.com/assets/mw/static/social-media-share/mw-logo-245x245@1x.png",
                        "twitter:title": "Thesaurus results for LIMOUSINE",
                        "twitter:card": "summary",
                        "theme-color": "#ffffff",
                        "twitter:url": "https://www.merriam-webster.com/thesaurus/limousine",
                        "og:title": "Thesaurus results for LIMOUSINE",
                        "twitter:aria-text": "Share more words for limousine on Twitter",
                        "og:aria-text": "Post more words for limousine to Facebook",
                        "og:description": "Limousine: as in sedan, coupe. Synonyms: compact, coupe, intermediate… Find the right word.",
                        "twitter:image": "https://merriam-webster.com/assets/mw/static/social-media-share/mw-logo-245x245@1x.png",
                        "referrer": "unsafe-url",
                        "fb:app_id": "178450008855735",
                        "twitter:site": "@MerriamWebster",
                        "viewport": "width=device-width, initial-scale=1.0",
                        "twitter:description": "Limousine: as in sedan, coupe. Synonyms: compact, coupe, intermediate… Find the right word.",
                        "og:url": "https://www.merriam-webster.com/thesaurus/limousine"
                    }
                ],
                "cse_image": [
                    {
                        "src": "https://merriam-webster.com/assets/mw/static/social-media-share/mw-logo-245x245@1x.png"
                    }
                ]
            }
        },
        {
            "kind": "customsearch#result",
            "title": "What is another word for limousine? | Limousine Synonyms ...",
            "htmlTitle": "What is another word for limousine? | <b>Limousine Synonyms</b> ...",
            "link": "https://www.wordhippo.com/what-is/another-word-for/limousine.html",
            "displayLink": "www.wordhippo.com",
            "snippet": "Find 57 synonyms for limousine and other similar words that you can use instead \nfrom our thesaurus.",
            "htmlSnippet": "Find 57 <b>synonyms</b> for <b>limousine</b> and other similar words that you can use instead <br>\nfrom our thesaurus.",
            "cacheId": "E8KKMa5rXi0J",
            "formattedUrl": "https://www.wordhippo.com/what-is/another-word-for/limousine.html",
            "htmlFormattedUrl": "https://www.wordhippo.com/what-is/another-word-for/<b>limousine</b>.html",
            "pagemap": {
                "metatags": [
                    {
                        "viewport": "width=device-width, initial-scale=1.0"
                    }
                ]
            }
        },
        {
            "kind": "customsearch#result",
            "title": "Synonyms and Antonyms for limousine | Synonym.com",
            "htmlTitle": "<b>Synonyms</b> and Antonyms for <b>limousine</b> | <b>Synonym</b>.com",
            "link": "https://www.synonym.com/synonyms/limousine",
            "displayLink": "www.synonym.com",
            "snippet": "Synonym.com is the web's best resource for English synonyms, antonyms, and \ndefinitions.",
            "htmlSnippet": "<b>Synonym</b>.com is the web&#39;s best resource for English <b>synonyms</b>, antonyms, and <br>\ndefinitions.",
            "cacheId": "rbK2wlIR7lwJ",
            "formattedUrl": "https://www.synonym.com/synonyms/limousine",
            "htmlFormattedUrl": "https://www.<b>synonym</b>.com/<b>synonyms</b>/<b>limousine</b>",
            "pagemap": {
                "cse_thumbnail": [
                    {
                        "src": "https://encrypted-tbn2.gstatic.com/images?q=tbn:ANd9GcT2kfLDDnPtioWhkwcA4k79uVoBwZGbjMImaZa6YUkJlQd0xTZGjOwZ2Yc",
                        "width": "228",
                        "height": "221"
                    }
                ],
                "metatags": [
                    {
                        "msapplication-tilecolor": "#FFFFFF",
                        "og:image": "/static/images/icons/synonym/synonym-icon-fullsize.png",
                        "og:type": "article",
                        "twitter:title": "Synonyms and Antonyms for limousine",
                        "theme-color": "#d8f1fb",
                        "og:title": "Synonyms and Antonyms for limousine",
                        "apple-mobile-web-app-title": "Synonym",
                        "msapplication-tileimage": "/static/images/icons/synonym/favicon144.png",
                        "og:description": "limousine | definition: large luxurious car; usually driven by a chauffeur | synonyms: automobile, motorcar, berlin, car, machine, limo, auto| antonyms: stay in place",
                        "apple-mobile-web-app-status-bar-style": "default",
                        "viewport": "width=device-width",
                        "twitter:description": "limousine | definition: large luxurious car; usually driven by a chauffeur | synonyms: automobile, motorcar, berlin, car, machine, limo, auto| antonyms: stay in place",
                        "apple-mobile-web-app-capable": "no",
                        "og:url": "https://www.synonym.com/synonyms/limousine"
                    }
                ],
                "cse_image": [
                    {
                        "src": "https://www.synonym.com/static/images/wordtigo-background.svg"
                    }
                ]
            }
        },
        {
            "kind": "customsearch#result",
            "title": "Synonyms for LIMOUSINE - Thesaurus.net",
            "htmlTitle": "<b>Synonyms</b> for <b>LIMOUSINE</b> - Thesaurus.net",
            "link": "https://www.thesaurus.net/limousine",
            "displayLink": "www.thesaurus.net",
            "snippet": "Synonyms for: Minibus, YELLOW CAB, pick-up, tractor trailer, road train, luxury \ncar, steamer, checker cab, golf cart, flivver, articulated vehicle, racer, microbus, ...",
            "htmlSnippet": "<b>Synonyms</b> for: Minibus, YELLOW CAB, pick-up, tractor trailer, road train, luxury <br>\ncar, steamer, checker cab, golf cart, flivver, articulated vehicle, racer, microbus,&nbsp;...",
            "cacheId": "V69xg7wxbeQJ",
            "formattedUrl": "https://www.thesaurus.net/limousine",
            "htmlFormattedUrl": "https://www.thesaurus.net/<b>limousine</b>",
            "pagemap": {
                "cse_thumbnail": [
                    {
                        "src": "https://encrypted-tbn3.gstatic.com/images?q=tbn:ANd9GcTHmPbL6L3tWwemgnxXK_eIzcEGEcFI39SJD35kF79sVRInWi-xNtX9sw",
                        "width": "312",
                        "height": "53"
                    }
                ],
                "metatags": [
                    {
                        "og:image": "https://www.thesaurus.net/public/desktop/images/logo.png",
                        "og:type": "article",
                        "twitter:title": "Synonyms for LIMOUSINE - Thesaurus.net",
                        "og:site_name": "Thesaurus.net",
                        "viewport": "width=device-width, initial-scale=1.0",
                        "twitter:description": "limousine | synonyms: Minibus, YELLOW CAB, pick-up, tractor trailer, road train, luxury car, steamer, checker cab, golf cart, flivver, articulated vehicle, racer, microbus, gran turismo, electric car, railcar, family car, racing car, stock car, minivan, pony cart, 18-wheeler, camper, All Terrain Vehicle, 4WD, breakdown truck, ATV, camper van, cruiser, classic car, automatic, demo, cabriolet, compact, estate, dragster, ride, transportation, buggy, bug, convertible, tub, bus, wheels, van, crate, truck, wreck, jalopy, heap, sports car, bucket, motor, pickup, wagon, conveyance, limo, ambulance, boxcar, barge, cart, coach, stagecoach, ferry, vehicle, sled, fire engine, armored car, gondola, tractor, sledge, boat, ship, hearse, taxicab, motorcycle, brougham, cab, train, landau, bicycle, Minibus",
                        "og:title": "Synonyms for LIMOUSINE - Thesaurus.net",
                        "og:url": "https://www.thesaurus.net/limousine",
                        "og:description": "limousine | synonyms: Minibus, YELLOW CAB, pick-up, tractor trailer, road train, luxury car, steamer, checker cab, golf cart, flivver, articulated vehicle, racer, microbus, gran turismo, electric car, railcar, family car, racing car, stock car, minivan, pony cart, 18-wheeler, camper, All Terrain Vehicle, 4WD, breakdown truck, ATV, camper van, cruiser, classic car, automatic, demo, cabriolet, compact, estate, dragster, ride, transportation, buggy, bug, convertible, tub, bus, wheels, van, crate, truck, wreck, jalopy, heap, sports car, bucket, motor, pickup, wagon, conveyance, limo, ambulance, boxcar, barge, cart, coach, stagecoach, ferry, vehicle, sled, fire engine, armored car, gondola, tractor, sledge, boat, ship, hearse, taxicab, motorcycle, brougham, cab, train, landau, bicycle, Minibus"
                    }
                ],
                "cse_image": [
                    {
                        "src": "https://www.thesaurus.net/public/desktop/images/logo.png"
                    }
                ]
            }
        },
        {
            "kind": "customsearch#result",
            "title": "Limousine Synonyms & Antonyms | Synonyms.com",
            "htmlTitle": "<b>Limousine Synonyms</b> &amp; Antonyms | Synonyms.com",
            "link": "https://www.synonyms.com/synonym/limousine",
            "displayLink": "www.synonyms.com",
            "snippet": "Find all the synonyms and alternative words for limousine at Synonyms.com, the \nlargest free online thesaurus, antonyms, definitions and translations resource ...",
            "htmlSnippet": "Find all the <b>synonyms</b> and alternative words for <b>limousine</b> at <b>Synonyms</b>.com, the <br>\nlargest free online thesaurus, antonyms, definitions and translations resource&nbsp;...",
            "cacheId": "Sx4-TAqCZSoJ",
            "formattedUrl": "https://www.synonyms.com/synonym/limousine",
            "htmlFormattedUrl": "https://www.<b>synonyms</b>.com/<b>synonym</b>/<b>limousine</b>",
            "pagemap": {
                "cse_thumbnail": [
                    {
                        "src": "https://encrypted-tbn2.gstatic.com/images?q=tbn:ANd9GcTfFdFBpAbs2y9VqciFjI-PzuYaJNHhUdN6-Q30WbBLt9mc6631QX3kvAW-",
                        "width": "258",
                        "height": "196"
                    }
                ],
                "metatags": [
                    {
                        "fb:app_id": "256377701138813",
                        "viewport": "width=device-width, initial-scale=1",
                        "og:url": "https://www.synonyms.com/synonym/limousine",
                        "google-signin-client_id": "567628204450-v86e6utrquhm3h5qp94e14ss79pinecj.apps.googleusercontent.com"
                    }
                ],
                "cse_image": [
                    {
                        "src": "https://www.synonyms.com/root/app_common/img/top_logo_syn.png"
                    }
                ]
            }
        },
        {
            "kind": "customsearch#result",
            "title": "LIMOUSINE (noun) definition and synonyms | Macmillan Dictionary",
            "htmlTitle": "<b>LIMOUSINE</b> (noun) definition and <b>synonyms</b> | Macmillan Dictionary",
            "link": "https://www.macmillandictionary.com/us/dictionary/american/limousine",
            "displayLink": "www.macmillandictionary.com",
            "snippet": "Definition of LIMOUSINE (noun): large expensive comfortable car; small bus that \ntakes people to airports.",
            "htmlSnippet": "Definition of <b>LIMOUSINE</b> (noun): large expensive comfortable car; small bus that <br>\ntakes people to airports.",
            "cacheId": "jJk95z8_88oJ",
            "formattedUrl": "https://www.macmillandictionary.com/us/dictionary/american/limousine",
            "htmlFormattedUrl": "https://www.macmillandictionary.com/us/dictionary/american/<b>limousine</b>",
            "pagemap": {
                "cse_thumbnail": [
                    {
                        "src": "https://encrypted-tbn3.gstatic.com/images?q=tbn:ANd9GcQq1XwZHyhsplz2gqTWfOMdrRK_HTPsdInhEZEectSt8unMIf5yPEGbNA",
                        "width": "426",
                        "height": "118"
                    }
                ],
                "metatags": [
                    {
                        "og:image": "/external/images/social/social_macmillan.jpg?version=4.0.27",
                        "og:type": "website",
                        "viewport": "width=device-width, initial-scale=1.0, maximum-scale=10.0, minimum-scale=0.1",
                        "og:title": "LIMOUSINE (noun) definition and synonyms | Macmillan Dictionary",
                        "og:url": "https://www.macmillandictionary.com/dictionary/british/limousine",
                        "og:description": "Definition of LIMOUSINE (noun): large expensive comfortable car; small bus that takes people to airports"
                    }
                ],
                "cse_image": [
                    {
                        "src": "https://www.macmillandictionary.com/external/images/bg-wave.svg?version=4.0.27"
                    }
                ]
            }
        },
        {
            "kind": "customsearch#result",
            "title": "limousine synonyms with definition | Macmillan Thesaurus",
            "htmlTitle": "<b>limousine synonyms</b> with definition | Macmillan Thesaurus",
            "link": "https://www.macmillanthesaurus.com/limousine",
            "displayLink": "www.macmillanthesaurus.com",
            "snippet": "Related terms for 'limousine': a good runner, automatic, cabriolet, classic car, \ncompact, convertible, coupé, courtesy car, cruiser, demo, dragster.",
            "htmlSnippet": "Related terms for &#39;<b>limousine</b>&#39;: a good runner, automatic, cabriolet, classic car, <br>\ncompact, convertible, coupé, courtesy car, cruiser, demo, dragster.",
            "cacheId": "l_jnv-fwK0EJ",
            "formattedUrl": "https://www.macmillanthesaurus.com/limousine",
            "htmlFormattedUrl": "https://www.macmillanthesaurus.com/<b>limousine</b>",
            "pagemap": {
                "cse_thumbnail": [
                    {
                        "src": "https://encrypted-tbn1.gstatic.com/images?q=tbn:ANd9GcTfIxohuUQXoHTALEWpIz8wqx49Uc7Ti_tGnM5JJ8BDnuM9Nf6c0C3BdA",
                        "width": "426",
                        "height": "118"
                    }
                ],
                "product": [
                    {
                        "image": "https://www.macmillanthesaurus.com/external/images/social_macmillan.jpg?version=1.0.35",
                        "name": "Macmillan English Thesaurus, Synonyms and Antonyms"
                    }
                ],
                "metatags": [
                    {
                        "og:image": "/external/images/logoThesaurus.png?version=1.0.35",
                        "viewport": "width=device-width, initial-scale=1.0, maximum-scale=1.0, user-scalable=no",
                        "og:title": "limousine synonyms with definition | Macmillan Thesaurus",
                        "title": "limousine synonyms with definition | Macmillan Thesaurus",
                        "og:url": "https://www.macmillanthesaurus.com/limousine",
                        "og:description": "Related terms for 'limousine': a good runner, automatic, cabriolet, classic car, compact, convertible, coupé, courtesy car, cruiser, demo, dragster"
                    }
                ],
                "cse_image": [
                    {
                        "src": "https://www.macmillanthesaurus.com/external/images/bg-wave.svg?version=1.0.35"
                    }
                ],
                "hproduct": [
                    {
                        "fn": "Macmillan English Thesaurus, Synonyms and Antonyms",
                        "photo": "https://www.macmillanthesaurus.com/external/images/social_macmillan.jpg?version=1.0.35"
                    }
                ]
            }
        },
        {
            "kind": "customsearch#result",
            "title": "LIMO Synonyms & Antonyms | Synonyms.com",
            "htmlTitle": "<b>LIMO Synonyms</b> &amp; Antonyms | Synonyms.com",
            "link": "https://www.synonyms.com/synonym/LIMO",
            "displayLink": "www.synonyms.com",
            "snippet": "Find all the synonyms and alternative words for LIMO at Synonyms.com, the \nlargest free online thesaurus, antonyms, definitions and translations resource on \nthe ...",
            "htmlSnippet": "Find all the <b>synonyms</b> and alternative words for <b>LIMO</b> at <b>Synonyms</b>.com, the <br>\nlargest free online thesaurus, antonyms, definitions and translations resource on <br>\nthe&nbsp;...",
            "cacheId": "PVbhr2MAl_wJ",
            "formattedUrl": "https://www.synonyms.com/synonym/LIMO",
            "htmlFormattedUrl": "https://www.<b>synonyms</b>.com/<b>synonym</b>/<b>LIMO</b>",
            "pagemap": {
                "cse_thumbnail": [
                    {
                        "src": "https://encrypted-tbn2.gstatic.com/images?q=tbn:ANd9GcTfFdFBpAbs2y9VqciFjI-PzuYaJNHhUdN6-Q30WbBLt9mc6631QX3kvAW-",
                        "width": "258",
                        "height": "196"
                    }
                ],
                "metatags": [
                    {
                        "fb:app_id": "256377701138813",
                        "viewport": "width=device-width, initial-scale=1",
                        "og:url": "https://www.synonyms.com/synonym/LIMO",
                        "google-signin-client_id": "567628204450-v86e6utrquhm3h5qp94e14ss79pinecj.apps.googleusercontent.com"
                    }
                ],
                "cse_image": [
                    {
                        "src": "https://www.synonyms.com/root/app_common/img/top_logo_syn.png"
                    }
                ]
            }
        }
    ]
}