{
    "kind": "customsearch#search",
    "url": {
        "type": "application/json",
        "template": "https://www.googleapis.com/customsearch/v1?q={searchTerms}&num={count?}&start={startIndex?}&lr={language?}&safe={safe?}&cx={cx?}&sort={sort?}&filter={filter?}&gl={gl?}&cr={cr?}&googlehost={googleHost?}&c2coff={disableCnTwTranslation?}&hq={hq?}&hl={hl?}&siteSearch={siteSearch?}&siteSearchFilter={siteSearchFilter?}&exactTerms={exactTerms?}&excludeTerms={excludeTerms?}&linkSite={linkSite?}&orTerms={orTerms?}&relatedSite={relatedSite?}&dateRestrict={dateRestrict?}&lowRange={lowRange?}&highRange={highRange?}&searchType={searchType}&fileType={fileType?}&rights={rights?}&imgSize={imgSize?}&imgType={imgType?}&imgColorType={imgColorType?}&imgDominantColor={imgDominantColor?}&alt=json"
    },
    "queries": {
        "request": [
            {
                "title": "Google Custom Search - rose  synonyms",
                "totalResults": "36600000",
                "searchTerms": "rose  synonyms",
                "count": 10,
                "startIndex": 1,
                "inputEncoding": "utf8",
                "outputEncoding": "utf8",
                "safe": "off",
                "cx": "003330174904582784281:ycdnjzifiqk"
            }
        ],
        "nextPage": [
            {
                "title": "Google Custom Search - rose  synonyms",
                "totalResults": "36600000",
                "searchTerms": "rose  synonyms",
                "count": 10,
                "startIndex": 11,
                "inputEncoding": "utf8",
                "outputEncoding": "utf8",
                "safe": "off",
                "cx": "003330174904582784281:ycdnjzifiqk"
            }
        ]
    },
    "context": {
        "title": "Kyblit2020DataSE"
    },
    "searchInformation": {
        "searchTime": 0.299925,
        "formattedSearchTime": "0.30",
        "totalResults": "36600000",
        "formattedTotalResults": "36,600,000"
    },
    "items": [
        {
            "kind": "customsearch#result",
            "title": "Rose Synonyms, Rose Antonyms | Thesaurus.com",
            "htmlTitle": "<b>Rose Synonyms</b>, Rose Antonyms | Thesaurus.com",
            "link": "https://www.thesaurus.com/browse/rose",
            "displayLink": "www.thesaurus.com",
            "snippet": "RELATED WORDS AND SYNONYMS FOR ROSE. crimson. nounred. bloody · \nblush · color ...",
            "htmlSnippet": "RELATED WORDS AND <b>SYNONYMS</b> FOR <b>ROSE</b>. crimson. nounred. bloody &middot; <br>\nblush &middot; color&nbsp;...",
            "cacheId": "RBQP2ruFGswJ",
            "formattedUrl": "https://www.thesaurus.com/browse/rose",
            "htmlFormattedUrl": "https://www.<b>thesaurus</b>.com/browse/<b>rose</b>",
            "pagemap": {
                "cse_thumbnail": [
                    {
                        "src": "https://encrypted-tbn1.gstatic.com/images?q=tbn:ANd9GcTJxpppdTGPIh5cfR5ejYWhEGQm6eZQG02OxILJQqoiwyGItTKpABzE5qsK",
                        "width": "225",
                        "height": "225"
                    }
                ],
                "metatags": [
                    {
                        "og:image": "https://www.thesaurus.com/assets/thesaurus_social_logo-4b42f0643b92eaf85fc0e4e78aa84a8d.png",
                        "twitter:card": "summary",
                        "fb:app_id": "118269238218175",
                        "og:site_name": "www.thesaurus.com",
                        "twitter:site": "@Dictionarycom",
                        "msvalidate.01": "DF5542D7723770377E9ABFF59AC1DC97",
                        "viewport": "width=device-width, initial-scale=1.0",
                        "og:title": "Synonyms of rose | Thesaurus.com",
                        "fb:admins": "100000304287730,109125464873",
                        "og:description": "Synonyms for rose from Thesaurus.com, the world’s leading online source for synonyms, antonyms, and more."
                    }
                ],
                "cse_image": [
                    {
                        "src": "https://www.thesaurus.com/assets/thesaurus_social_logo-4b42f0643b92eaf85fc0e4e78aa84a8d.png"
                    }
                ]
            }
        },
        {
            "kind": "customsearch#result",
            "title": "Rose Synonyms, Rose Antonyms | Merriam-Webster Thesaurus",
            "htmlTitle": "<b>Rose Synonyms</b>, Rose Antonyms | Merriam-Webster Thesaurus",
            "link": "https://www.merriam-webster.com/thesaurus/rose",
            "displayLink": "www.merriam-webster.com",
            "snippet": "Synonyms & Antonyms of rose · 1 to become greater in extent, volume, amount, \nor number the snow accumulation is rising at an alarming rate Synonyms for rose\n.",
            "htmlSnippet": "<b>Synonyms</b> &amp; Antonyms of <b>rose</b> &middot; 1 to become greater in extent, volume, amount, <br>\nor number the snow accumulation is rising at an alarming rate <b>Synonyms</b> for <b>rose</b><br>\n.",
            "cacheId": "vRkI2N9GpBMJ",
            "formattedUrl": "https://www.merriam-webster.com/thesaurus/rose",
            "htmlFormattedUrl": "https://www.merriam-webster.com/<b>thesaurus</b>/<b>rose</b>",
            "pagemap": {
                "cse_thumbnail": [
                    {
                        "src": "https://encrypted-tbn1.gstatic.com/images?q=tbn:ANd9GcSKksTSKYwpW8It403nrjw5t1_a8pLO2PI6ImEG7uvFrNfacgiziPZgG-_O",
                        "width": "225",
                        "height": "225"
                    }
                ],
                "metatags": [
                    {
                        "msapplication-tilecolor": "#2b5797",
                        "og:image": "https://merriam-webster.com/assets/mw/static/social-media-share/mw-logo-245x245@1x.png",
                        "twitter:title": "Thesaurus results for ROSE",
                        "twitter:card": "summary",
                        "theme-color": "#ffffff",
                        "twitter:url": "https://www.merriam-webster.com/thesaurus/rose",
                        "og:title": "Thesaurus results for ROSE",
                        "twitter:aria-text": "Share more words for rose on Twitter",
                        "og:aria-text": "Post more words for rose to Facebook",
                        "og:description": "Rose: to become greater in extent, volume, amount, or number. Synonyms: accelerated, accumulated, appreciated… Antonyms: contracted, decreased, diminished… Find the right word.",
                        "twitter:image": "https://merriam-webster.com/assets/mw/static/social-media-share/mw-logo-245x245@1x.png",
                        "referrer": "unsafe-url",
                        "fb:app_id": "178450008855735",
                        "twitter:site": "@MerriamWebster",
                        "viewport": "width=device-width, initial-scale=1.0",
                        "twitter:description": "Rose: to become greater in extent, volume, amount, or number. Synonyms: accelerated, accumulated, appreciated… Antonyms: contracted, decreased, diminished… Find the right word.",
                        "og:url": "https://www.merriam-webster.com/thesaurus/rose"
                    }
                ],
                "cse_image": [
                    {
                        "src": "https://merriam-webster.com/assets/mw/static/social-media-share/mw-logo-245x245@1x.png"
                    }
                ]
            }
        },
        {
            "kind": "customsearch#result",
            "title": "What is another word for rose? | Rose Synonyms - WordHippo ...",
            "htmlTitle": "What is another word for rose? | <b>Rose Synonyms</b> - WordHippo ...",
            "link": "https://www.wordhippo.com/what-is/another-word-for/rose.html",
            "displayLink": "www.wordhippo.com",
            "snippet": "Find 1523 synonyms for rose and other similar words that you can use instead \nbased on 23 separate contexts from our thesaurus.",
            "htmlSnippet": "Find 1523 <b>synonyms</b> for <b>rose</b> and other similar words that you can use instead <br>\nbased on 23 separate contexts from our <b>thesaurus</b>.",
            "cacheId": "oK8nuqI3KCoJ",
            "formattedUrl": "https://www.wordhippo.com/what-is/another-word-for/rose.html",
            "htmlFormattedUrl": "https://www.wordhippo.com/what-is/another-word-for/<b>rose</b>.html",
            "pagemap": {
                "metatags": [
                    {
                        "viewport": "width=device-width, initial-scale=1.0"
                    }
                ]
            }
        },
        {
            "kind": "customsearch#result",
            "title": "Rose synonyms | Best 125 synonyms for rose",
            "htmlTitle": "<b>Rose synonyms</b> | Best 125 synonyms for rose",
            "link": "https://thesaurus.yourdictionary.com/rose",
            "displayLink": "thesaurus.yourdictionary.com",
            "snippet": "The best 125 synonyms for rose, including: blush-wine, rose-wine, developed, \narose, lowered, decreased, blush, flush, pink, red, rosette and more.",
            "htmlSnippet": "The best 125 <b>synonyms</b> for <b>rose</b>, including: blush-wine, <b>rose</b>-wine, developed, <br>\narose, lowered, decreased, blush, flush, pink, red, rosette and more.",
            "cacheId": "YS_Ik_Ua8VgJ",
            "formattedUrl": "https://thesaurus.yourdictionary.com/rose",
            "htmlFormattedUrl": "https://<b>thesaurus</b>.yourdictionary.com/<b>rose</b>",
            "pagemap": {
                "metatags": [
                    {
                        "viewport": "width=device-width, initial-scale=1"
                    }
                ]
            }
        },
        {
            "kind": "customsearch#result",
            "title": "Synonyms and Antonyms for rose | Synonym.com",
            "htmlTitle": "<b>Synonyms</b> and Antonyms for <b>rose</b> | <b>Synonym</b>.com",
            "link": "https://www.synonym.com/synonyms/rose",
            "displayLink": "www.synonym.com",
            "snippet": "Synonym.com is the web's best resource for English synonyms, antonyms, and \ndefinitions.",
            "htmlSnippet": "<b>Synonym</b>.com is the web&#39;s best resource for English <b>synonyms</b>, antonyms, and <br>\ndefinitions.",
            "cacheId": "0_tZpI5nF_MJ",
            "formattedUrl": "https://www.synonym.com/synonyms/rose",
            "htmlFormattedUrl": "https://www.<b>synonym</b>.com/<b>synonyms</b>/<b>rose</b>",
            "pagemap": {
                "cse_thumbnail": [
                    {
                        "src": "https://encrypted-tbn2.gstatic.com/images?q=tbn:ANd9GcT2kfLDDnPtioWhkwcA4k79uVoBwZGbjMImaZa6YUkJlQd0xTZGjOwZ2Yc",
                        "width": "228",
                        "height": "221"
                    }
                ],
                "metatags": [
                    {
                        "msapplication-tilecolor": "#FFFFFF",
                        "og:image": "/static/images/icons/synonym/synonym-icon-fullsize.png",
                        "og:type": "article",
                        "twitter:title": "Synonyms and Antonyms for rose",
                        "theme-color": "#d8f1fb",
                        "og:title": "Synonyms and Antonyms for rose",
                        "apple-mobile-web-app-title": "Synonym",
                        "msapplication-tileimage": "/static/images/icons/synonym/favicon144.png",
                        "og:description": "rose | definition: any of many shrubs of the genus Rosa that bear roses | synonyms: Japanese rose, Rosa, briar, eglantine, Rosa canina, Rosa odorata, hip, China rose, sweetbriar, Rosa moschata, multiflora rose, banksia rose, dog rose, ground rose, baby rose, Rosa eglanteria, genus Rosa, Rosa multiflora, rosebush, Rosa laevigata, Rosa damascena, brier, tea rose, damask rose, Rosa spithamaea, bush, multiflora, rosehip, musk rose, Rosa chinensis, Rosa pendulina, Rosa banksia, Bengal rose, Cherokee rose, rose hip, sweetbrier, shrub, mountain rose, summer damask rose| antonyms: brown-gray, yellow-white, yellowish-white, silvery-grey, ash-grey",
                        "apple-mobile-web-app-status-bar-style": "default",
                        "viewport": "width=device-width",
                        "twitter:description": "rose | definition: any of many shrubs of the genus Rosa that bear roses | synonyms: Japanese rose, Rosa, briar, eglantine, Rosa canina, Rosa odorata, hip, China rose, sweetbriar, Rosa moschata, multiflora rose, banksia rose, dog rose, ground rose, baby rose, Rosa eglanteria, genus Rosa, Rosa multiflora, rosebush, Rosa laevigata, Rosa damascena, brier, tea rose, damask rose, Rosa spithamaea, bush, multiflora, rosehip, musk rose, Rosa chinensis, Rosa pendulina, Rosa banksia, Bengal rose, Cherokee rose, rose hip, sweetbrier, shrub, mountain rose, summer damask rose| antonyms: brown-gray, yellow-white, yellowish-white, silvery-grey, ash-grey",
                        "apple-mobile-web-app-capable": "no",
                        "og:url": "https://www.synonym.com/synonyms/rose"
                    }
                ],
                "cse_image": [
                    {
                        "src": "https://www.synonym.com/static/images/wordtigo-background.svg"
                    }
                ]
            }
        },
        {
            "kind": "customsearch#result",
            "title": "Rose Synonyms & Antonyms | Synonyms.com",
            "htmlTitle": "<b>Rose Synonyms</b> &amp; Antonyms | Synonyms.com",
            "link": "https://www.synonyms.com/synonym/rose",
            "displayLink": "www.synonyms.com",
            "snippet": "Princeton's WordNet(0.00 / 0 votes)Rate these synonyms: · rose, rosebush(noun) \nany of many shrubs of the genus Rosa that bear roses · blush wine, pink wine, ...",
            "htmlSnippet": "Princeton&#39;s WordNet(0.00 / 0 votes)Rate these <b>synonyms</b>: &middot; <b>rose</b>, rosebush(noun) <br>\nany of many shrubs of the genus Rosa that bear <b>roses</b> &middot; blush wine, pink wine,&nbsp;...",
            "cacheId": "Bex5_R9Ff60J",
            "formattedUrl": "https://www.synonyms.com/synonym/rose",
            "htmlFormattedUrl": "https://www.<b>synonyms</b>.com/<b>synonym</b>/<b>rose</b>",
            "pagemap": {
                "cse_thumbnail": [
                    {
                        "src": "https://encrypted-tbn2.gstatic.com/images?q=tbn:ANd9GcTfFdFBpAbs2y9VqciFjI-PzuYaJNHhUdN6-Q30WbBLt9mc6631QX3kvAW-",
                        "width": "258",
                        "height": "196"
                    }
                ],
                "metatags": [
                    {
                        "fb:app_id": "256377701138813",
                        "viewport": "width=device-width, initial-scale=1",
                        "og:url": "https://www.synonyms.com/synonym/rose",
                        "google-signin-client_id": "567628204450-v86e6utrquhm3h5qp94e14ss79pinecj.apps.googleusercontent.com"
                    }
                ],
                "cse_image": [
                    {
                        "src": "https://www.synonyms.com/root/app_common/img/top_logo_syn.png"
                    }
                ]
            }
        },
        {
            "kind": "customsearch#result",
            "title": "rose synonyms with definition | Macmillan Thesaurus",
            "htmlTitle": "<b>rose synonyms</b> with definition | Macmillan Thesaurus",
            "link": "https://www.macmillanthesaurus.com/rose",
            "displayLink": "www.macmillanthesaurus.com",
            "snippet": "Related terms for 'rose': alfalfa, amaryllis, anemone, arum lily, aster, baby's breath\n, begonia, bird of paradise, bluebell, bougainvillea, bulrush.",
            "htmlSnippet": "Related terms for &#39;<b>rose</b>&#39;: alfalfa, amaryllis, anemone, arum lily, aster, baby&#39;s breath<br>\n, begonia, bird of paradise, bluebell, bougainvillea, bulrush.",
            "cacheId": "nobYEMAYLe8J",
            "formattedUrl": "https://www.macmillanthesaurus.com/rose",
            "htmlFormattedUrl": "https://www.macmillan<b>thesaurus</b>.com/<b>rose</b>",
            "pagemap": {
                "cse_thumbnail": [
                    {
                        "src": "https://encrypted-tbn1.gstatic.com/images?q=tbn:ANd9GcTvi2fKGyVfH8J_NZJPZvttg3WD5erxxyfmRQT9xohcKNV8Oa4QTCKfDg",
                        "width": "426",
                        "height": "118"
                    }
                ],
                "metatags": [
                    {
                        "og:image": "/external/images/logoThesaurus.png?version=1.0.46",
                        "viewport": "width=device-width, initial-scale=1.0, maximum-scale=1.0, user-scalable=no",
                        "og:title": "rose synonyms with definition | Macmillan Thesaurus",
                        "title": "rose synonyms with definition | Macmillan Thesaurus",
                        "og:url": "https://www.macmillanthesaurus.com/rose",
                        "og:description": "Related terms for 'rose': alfalfa, amaryllis, anemone, arum lily, aster, baby’s breath, begonia, bird of paradise, bluebell, bougainvillea, bulrush"
                    }
                ],
                "cse_image": [
                    {
                        "src": "https://www.macmillanthesaurus.com/external/images/bg-wave.svg?version=1.0.46"
                    }
                ]
            }
        },
        {
            "kind": "customsearch#result",
            "title": "1 935 Rose Synonyms and 9 Rose Antonyms | Rose in Thesaurus",
            "htmlTitle": "1 935 <b>Rose Synonyms</b> and 9 Rose Antonyms | Rose in Thesaurus",
            "link": "https://www.powerthesaurus.org/rose",
            "displayLink": "www.powerthesaurus.org",
            "snippet": "Synonyms (Other Words) for Rose & Antonyms (Opposite Meaning) for Rose.",
            "htmlSnippet": "<b>Synonyms</b> (Other Words) for <b>Rose</b> &amp; Antonyms (Opposite Meaning) for <b>Rose</b>.",
            "cacheId": "SEKPs6kZVBgJ",
            "formattedUrl": "https://www.powerthesaurus.org/rose",
            "htmlFormattedUrl": "https://www.power<b>thesaurus</b>.org/<b>rose</b>",
            "pagemap": {
                "cse_thumbnail": [
                    {
                        "src": "https://encrypted-tbn3.gstatic.com/images?q=tbn:ANd9GcTVx9p8yv8Z4HECv2SAtxCx1RRwCs4TQ3i0VROrtknLF_sYU9IFYej4uRc",
                        "width": "225",
                        "height": "225"
                    }
                ],
                "metatags": [
                    {
                        "application-name": "Power Thesaurus",
                        "msapplication-config": "/browserconfig.xml",
                        "apple-itunes-app": "app-id=967211375",
                        "og:image": "https://www.radyushin.com/images/pt_logo_1200x1200.png",
                        "theme-color": "#168AE9",
                        "og:type": "website",
                        "og:image:alt": "Power Thesaurus",
                        "twitter:card": "summary",
                        "og:site_name": "Power Thesaurus",
                        "author": "Power Thesaurus",
                        "apple-mobile-web-app-title": "Power Thesaurus",
                        "og:title": "1 935 Rose Synonyms and 9 Rose Antonyms | Rose in Thesaurus",
                        "og:description": "Synonyms (Other Words) for Rose & Antonyms (Opposite Meaning) for Rose.",
                        "fb:app_id": "424964784740714",
                        "twitter:site": "@PowerThesaurus",
                        "viewport": "width=device-width, initial-scale=1.0, maximum-scale=1.0",
                        "og:locale": "en_US",
                        "og:url": "https://www.powerthesaurus.org/rose",
                        "google-play-app": "app-id=org.powerthesaurus.powerthesaurus"
                    }
                ],
                "cse_image": [
                    {
                        "src": "https://www.radyushin.com/images/pt_logo_1200x1200.png"
                    }
                ]
            }
        },
        {
            "kind": "customsearch#result",
            "title": "Synonyms for ROSE - Thesaurus.net",
            "htmlTitle": "Synonyms for <b>ROSE</b> - <b>Thesaurus</b>.net",
            "link": "https://www.thesaurus.net/rose",
            "displayLink": "www.thesaurus.net",
            "snippet": "Synonyms for ROSE: porcelain, rambler, strawberry, hedge, Rubying, \nincarnadined, rubify, incarnadining, Ruddied, ruddled, rubricated, rubricate, \nruddying, ...",
            "htmlSnippet": "<b>Synonyms</b> for <b>ROSE</b>: porcelain, rambler, strawberry, hedge, Rubying, <br>\nincarnadined, rubify, incarnadining, Ruddied, ruddled, rubricated, rubricate, <br>\nruddying,&nbsp;...",
            "cacheId": "VlWyXPKQsUgJ",
            "formattedUrl": "https://www.thesaurus.net/rose",
            "htmlFormattedUrl": "https://www.<b>thesaurus</b>.net/<b>rose</b>",
            "pagemap": {
                "cse_thumbnail": [
                    {
                        "src": "https://encrypted-tbn3.gstatic.com/images?q=tbn:ANd9GcTHmPbL6L3tWwemgnxXK_eIzcEGEcFI39SJD35kF79sVRInWi-xNtX9sw",
                        "width": "312",
                        "height": "53"
                    }
                ],
                "metatags": [
                    {
                        "og:image": "https://www.thesaurus.net/public/desktop/images/logo.png",
                        "og:type": "article",
                        "twitter:title": "Synonyms for ROSE, Antonyms for ROSE - Thesaurus.net",
                        "og:site_name": "Thesaurus.net",
                        "viewport": "width=device-width, initial-scale=1.0",
                        "twitter:description": "rose | synonyms: porcelain, rambler, strawberry, hedge, Rubying, incarnadined, rubify, incarnadining, Ruddied, ruddled, rubricated, rubricate, ruddying, incarnadines, ruddle, ruddles, turned red, turn red, escutcheon, opium, cockatrice, pore, Tedge, optimistic, figurehead, waste pipe, Subordinary, arroyo, impalement, damask rose, Paly, measure, cheer up, billet, chevron, rising, demulcent, field, chain of office, balm, nozzle, blarney, Piscina, waterworks, runner, dilate, achievement, auroral, armorial bearings, livery, Adjutage, pinkish, gully, went up, thistle, window, educate, ermine, buncombe, coronet, enlarge, honeyed words, cap and gown, swastika, nose, water pipe, spread eagle, pale, praiseworthy, sotto voce, aside, incarnadine, flesh, chief, expand, bend sinister, broad arrow, bandeau, chirp, opiate, in the background, pipe, adornment, reassuring, lullaby, symbol, badge, cheering, incense, annulet, come up, resist, stood up, luminous, take heart, confide, radiant, agreeable, staff, wand, boss, brighte",
                        "og:title": "Synonyms for ROSE, Antonyms for ROSE - Thesaurus.net",
                        "og:url": "https://www.thesaurus.net/rose",
                        "og:description": "rose | synonyms: porcelain, rambler, strawberry, hedge, Rubying, incarnadined, rubify, incarnadining, Ruddied, ruddled, rubricated, rubricate, ruddying, incarnadines, ruddle, ruddles, turned red, turn red, escutcheon, opium, cockatrice, pore, Tedge, optimistic, figurehead, waste pipe, Subordinary, arroyo, impalement, damask rose, Paly, measure, cheer up, billet, chevron, rising, demulcent, field, chain of office, balm, nozzle, blarney, Piscina, waterworks, runner, dilate, achievement, auroral, armorial bearings, livery, Adjutage, pinkish, gully, went up, thistle, window, educate, ermine, buncombe, coronet, enlarge, honeyed words, cap and gown, swastika, nose, water pipe, spread eagle, pale, praiseworthy, sotto voce, aside, incarnadine, flesh, chief, expand, bend sinister, broad arrow, bandeau, chirp, opiate, in the background, pipe, adornment, reassuring, lullaby, symbol, badge, cheering, incense, annulet, come up, resist, stood up, luminous, take heart, confide, radiant, agreeable, staff, wand, boss, brighte"
                    }
                ],
                "cse_image": [
                    {
                        "src": "https://www.thesaurus.net/public/desktop/images/logo.png"
                    }
                ]
            }
        },
        {
            "kind": "customsearch#result",
            "title": "ROSE (noun) definition and synonyms | Macmillan Dictionary",
            "htmlTitle": "<b>ROSE</b> (noun) definition and <b>synonyms</b> | Macmillan Dictionary",
            "link": "https://www.macmillandictionary.com/us/dictionary/american/rose_1",
            "displayLink": "www.macmillandictionary.com",
            "snippet": "Jul 26, 2017 ... Definition of ROSE (noun): flower with sweet smell and thorns; dark pink colour; \ncircular piece containing many small holes.",
            "htmlSnippet": "Jul 26, 2017 <b>...</b> Definition of <b>ROSE</b> (noun): flower with sweet smell and thorns; dark pink colour; <br>\ncircular piece containing many small holes.",
            "cacheId": "0nUQ0gkoP4gJ",
            "formattedUrl": "https://www.macmillandictionary.com/us/dictionary/american/rose_1",
            "htmlFormattedUrl": "https://www.macmillandictionary.com/us/dictionary/american/<b>rose</b>_1",
            "pagemap": {
                "cse_thumbnail": [
                    {
                        "src": "https://encrypted-tbn3.gstatic.com/images?q=tbn:ANd9GcQq1XwZHyhsplz2gqTWfOMdrRK_HTPsdInhEZEectSt8unMIf5yPEGbNA",
                        "width": "426",
                        "height": "118"
                    }
                ],
                "imageobject": [
                    {
                        "image": "https://www.macmillandictionary.com/external/slideshow/full/rose in glass_full.jpg",
                        "caption": "rose",
                        "description": "rose"
                    },
                    {
                        "image": "https://www.macmillandictionary.com/external/slideshow/full/rosebush_full.jpg",
                        "thumbnail": "https://www.macmillandictionary.com/external/slideshow/thumb/rosebush_thumb.jpg",
                        "caption": "rose",
                        "description": "rose"
                    },
                    {
                        "image": "https://www.macmillandictionary.com/external/slideshow/full/Rose Red_full.png",
                        "caption": "rose",
                        "description": "rose"
                    },
                    {
                        "image": "https://www.macmillandictionary.com/external/slideshow/full/rose watering can_full.jpg",
                        "caption": "rose",
                        "description": "rose"
                    }
                ],
                "metatags": [
                    {
                        "og:image": "https://www.macmillandictionary.com/external/slideshow/thumb/rose in glass_thumb.jpg",
                        "og:type": "website",
                        "viewport": "width=device-width, initial-scale=1.0, maximum-scale=10.0, minimum-scale=0.1",
                        "og:title": "ROSE (noun) definition and synonyms | Macmillan Dictionary",
                        "og:url": "https://www.macmillandictionary.com/dictionary/british/rose_1",
                        "og:description": "Definition of ROSE (noun): flower with sweet smell and thorns; dark pink colour; circular piece containing many small holes"
                    }
                ],
                "cse_image": [
                    {
                        "src": "https://www.macmillandictionary.com/external/images/bg-wave.svg?version=4.0.27"
                    }
                ]
            }
        }
    ]
}